﻿"KODPMO";"KODMO";"NAMPMO";"ADRESPMO"
124;260001;"Александровская ЦРБ";"Ставропольский край, Александровский район, с. Александровское, ул. Красноармейская, д. 296"
125;260001;"Александровская ЦРБ";"Ставропольский край, Александровский район, с. Александровское, ул. Больничная, д. 90"
126;260001;"Калиновская участковая больница";"Ставропольский край, Александровский район, с. Калиновское, ул. Ленинская, д. 76"
127;260001;"Круглолесская амбулатория";"Ставропольский край, Александровский район, с. Круглолесское, ул. Комсомольская, д. 8"
128;260001;"Грушевская амбулатория";"Ставропольский край, Александровский район, с. Грушевское, ул. Гагарина, д. 65"
129;260001;"Саблинская амбулатория";"Ставропольский край, Александровский район, с. Саблинское, ул. Октябрьская, д. 43"
130;260001;"Новокавказская амбулатория";"Ставропольский край, Александровский район, п. Новокавказский, ул. Средняя, д. 24"
131;260001;"Поселковая амбулатория";"Ставропольский край, Александровский район, х. Средний, ул. Садовая, д. 25"
132;260001;"Северная амбулатория";"Ставропольский край, Александровский район, с. Северное, ул. Красная, д.37, ул. Жаботинского, д. 63"
133;260001;"ФАП х.Дубовая Роща";"Ставропольский край, Александровский район, п. Дубовая Роща, ул. Ленина, д. 5"
134;260001;"ФАП х.Ледохович";"Ставропольский край, Александровский район, х. Ледохович, ул. Степная, д. 20"
135;260001;"ФАП с.Садовое";"Ставропольский край, Александровский район, с. Садовое, ул .Ленина, д.185/2"
136;260001;"ФАП х.Всадник";"Ставропольский край, Александровский район, х. Всадник, ул. Комсомольская, д. 3"
750;260002;"Александровская стоматполиклиника";"Ставропольский край, Александровский район, с. Александровское, ул. К. Маркса, д. 7"
137;260003;"Апанасенковская ЦРБ";"Ставропольский край, Апанасенковский район, с. Дивное, ул. Кашубы, д 2."
138;260003;"Апанасенковская амбулатория";"Ставропольский край, Апанасенковский район, с. Апанасенковское, ул. Советская, д. 61,  д. 63"
139;260003;"Киевская амбулатория";"Ставропольский край, Апанасенковский район, с. Киевка, ул. Ленина, д. 62"
140;260003;"Манычская амбулатория";"Ставропольский край, Апанасенковский район, с. Манычское, ул. Октябрьская, д. 21"
141;260003;"Малоджалгинская амбулатория";"Ставропольский край, Апанасенковский район, с. Малая Джалга, ул. Центральная, д. 5"
142;260003;"Воздвиженская амбулатория";"Ставропольский край, Апанасенковский район, с. Воздвиженское, ул. Октябрьская, д. 124"
143;260003;"Дербетовская амбулатория";"Ставропольский край, Апанасенковский район, с. Дербетовка, ул. Красная, д. 3"
144;260003;"ФАП с.Белые Копани";"Ставропольский край, Апанасенковский район, с. Белые Копани, ул. Советская, д. 36"
145;260003;"ФАП в п. Айгурский";"Ставропольский край, Апанасенковский район, п. Айгурский, ул. Западная, д. 1а"
146;260003;"ФАП в с. Рагули";"Ставропольский край, Апанасенковский район, с. Рагули, ул. Советская, д. 59"
15;260004;"ФАП с. Дубовая Балка";"Ставропольский край, Андроповский район, с. Дубовая Балка, ул. Полевая, д. 19/1"
16;260004;"ФАП п. Каскадный";"Ставропольский край, Андроповский район, п. Каскадный, ул. Центральная, д. 7Б"
17;260004;"ФАП с. Верхний Янкуль";"Ставропольский край, Андроповский район, с. Верхний Янкуль,  ул. Парковая, д. 1, кв. 2"
18;260004;"ФАП х. Овражный";"Ставропольский край, Андроповский район, х. Овражный,  ул. Центральная, д. 12, кв. 4"
19;260004;"ФАП с. Куршава";"Ставропольский край, Андроповский район, с. Куршава,  ул. Жинкина, д. 13"
20;260004;"ФАП с. Кианкиз";"Ставропольский край, Андроповский район, с. Кианкиз,  ул. Красная, д. 29/1"
21;260004;"ФАП ст-ца Воровсколесская";"Ставропольский край, Андроповский район, ст-ца Воровсколесская,  ул. Грековская, д. 31/2"
97;260005;"Поликлиника";"Ставропольский край, Арзгирский район, с. Арзгир, ул. Кирова, д. 11"
98;260005;"Поликлиника";"Ставропольский край, Арзгирский район, с. Арзгир, ул. Кирова, д. 7"
99;260005;"Участковая больница с. Петропавловское";"Ставропольский край, Арзгирский район, с. Петропавловское, ул. Красная, д. 17"
100;260005;"Амбулатория п. Чограйский";"Ставропольский край, Арзгирский район, п. Чограйский, ул. Мира, д. 2"
101;260005;"Амбулатория с. Новоромановское";"Ставропольский край, Арзгирский район, с. Новоромановское, ул. Конституциональная, д. 62а"
102;260005;"Амбулатория  с. Садовое";"Ставропольский край, Арзгирский район, с. Садовое, ул Красная, д. 68"
103;260005;"Амбулатория с. Серафимовское";"Ставропольский край, Арзгирский район, с. Серафимовское, ул. Ленина, д. 42"
104;260005;"ФАП с. Каменная Балка";"Ставропольский край, Арзгирский район, с. Каменная Балка, ул. Школьная, д. 26"
105;260005;"ФАП а. Башанта";"Ставропольский край, Арзгирский район, а. Башанта, ул. Оджаева, д. 11"
106;260005;"ФАП с. Родниковское";"Ставропольский край, Арзгирский район, с. Родниковское, ул. Бульварная, д. 73"
123;260005;"Арзгирская ЦРБ";"Ставропольский край, Арзгирский район, с. Арзгир, ул. Кирова, д. 1"
115;260006;"ФАП с.Каменная Балка";"Ставропольский край, Благодарненский район, с. Каменная Балка, ул. Молодежная, д.32"
116;260006;"ФАП п. Каменка";"Ставропольский край, Благодарненский район, п. Каменка, ул. Подгорная, д. 25"
117;260006;"ФАП с.Мирное";"Ставропольский край, Благодарненский район, с. Мирное, ул. Пролетарская, д.13"
118;260006;"ФАП х.Алтухов";"Ставропольский край, Благодарненский район, х. Алтухов, ул. Школьная, д.17"
119;260006;"ФАП  с.Шишкино";"Ставропольский край, Благодарненский район, с. Шишкино, ул. Виноградная, д. 24"
120;260006;"ФАП а. Эдельбай";"Ставропольский край, Благодарненский район, а. Эдельбай, ул. Комсомольская, д. 61"
121;260006;"ФАП х. Большевик";"Ставропольский край, Благодарненский район, х. Большевик, ул. Зеленая, д. 5"
122;260006;"ФАП п.Видный";"Ставропольский край, Благодарненский район, п. Видный, ул. Театральная, д. 4"
763;260006;"Благодарненская ЦРБ";"Ставропольский край, Благодарненский район, г. Благодарный, ул. Однокозова, д.162"
290;260007;"ФАП п.Ямки";"Ставропольский край, Грачевский район, п. Ямки,  ул. Центральная, д. 2"
291;260007;"ФАП п.Верхняя Кугульта";"Ставропольский край, Грачевский район, п. Верхняя Кугульта, ул. Ленина, д. 19"
292;260007;"ФАП х.Нагорный";"Ставропольский край, Грачевский район, х. Нагорный, ул. Октябрьская, д. 23а"
293;260007;"ФАП х.Базовый";"Ставропольский край, Грачевский район, х. Базовый, ул. Красная, д. 50а"
294;260007;"ФАП п.Новоспицевский";"Ставропольский край, Грачевский район, п. Новоспицевский, ул. Центральная, д. 6"
295;260007;"ФАП х.Кизилов";"Ставропольский край, Грачевский район, х. Кизилов,  ул. Центральная, д. 4"
296;260007;"ФАП х.Октябрь";"Ставропольский край, Грачевский район, х. Октябрь, ул. Октябрьская, д. 20а"
305;260008;"МБУЗ ""Изобильненская ЦРБ"" ИМРСК";"Ставропольский край, Изобильненский район, г. Изобильный, ул. Колхозная, д. 2"
306;260008;"поликлиника № 1";"Ставропольский край, Изобильненский район, г. Изобильный, ул. Почтовая, д. 35"
307;260008;"поликлиника № 2";"Ставропольский край, Изобильненский район, г. Изобильный, ул. Пролетарская, д. 51"
308;260008;"Детская поликлиника и педиатрическое отделение";"Ставропольский край, Изобильненский район, г. Изобильный, ул. Западная, д. 125"
309;260008;"Участковая больница  п. Рыздвяный";"Ставропольский край, Изобильненский район, пос. Рыздвяный, ул. Южная, д. 10"
310;260008;"Амбулатория ст. Новотроицкая";"Ставропольский край, Изобильненский район, ст. Новотроицкая, ул. Октябрьская, д. 238"
311;260008;"Амбулатория с. Птичье";"Ставропольский край, Изобильненский район, с. Птичье, ул. К. Маркса, д. 2"
312;260008;"Амбулатория ст. Каменнобродская";"Ставропольский край, Изобильненский район, ст. Каменнобродская, ул. Ленина, д. 25"
313;260008;"Амбулатория с. Московское";"Ставропольский край, Изобильненский район, с. Московское, ул. Ленина, д.15"
314;260008;"Амбулатория ст. Староизобильная";"Ставропольский край, Изобильненский район, ст. Староизобильная, ул. Молодежная, д. 9"
315;260008;"Амбулатория с. Тищенское";"Ставропольский край, Изобильненский район, с. Тищенское, ул. Орджоникидзе, д.117"
316;260008;"Амбулатория п. Передовой";"Ставропольский край, Изобильненский район, п. Передовой, ул. Боевая Единица, д. 97а"
303;260010;"ООО ""КДП""";"Ставропольский край, Изобильненский район, г. Изобильный, ул. Промышленная, д. 1"
331;260011;"МБУЗ ""Ипатовская ЦРБ""";"Ставропольский край, Ипатовский район, г. Ипатово, ул. Гагарина, д. 123"
332;260011;"Стационар центральной районной больницы";"Ставропольский край, Ипатовский район, г. Ипатово, ул. Гагарина, д. 123"
333;260011;"Районная поликлиника";"Ставропольский край, Ипатовский район, г. Ипатово, ул. Гагарина, д. 106"
334;260011;"Детская поликлиника ";"Ставропольский край, Ипатовский район, г. Ипатово, ул. Орджоникидзе, д. 66"
335;260011;"Стоматологическая поликлиника";"Ставропольский край, Ипатовский район, г. Ипатово, ул. Степная, д. 3"
336;260011;"Участковая больница с. Тахта";"Ставропольский край, Ипатовский район, с. Тахта, ул. Мира, д. 69"
337;260011;"Участковая больница пос. Красочный";"Ставропольский край, Ипатовский район, п. Красочный,  ул. Строительная, д. 4"
370;260012;"Амбулатория п. Комсомолец";"Ставропольский край, Кировский район, п. Комсомолец, ул. Октябрьская, д. 2"
371;260012;"Амбулатория ст. Старопавловская";"Ставропольский край, Кировский район, ст. Старопавловская, ул. Ленинская, д. 31"
372;260012;"Амбулатория с. Орловка";"Ставропольский край, Кировский район, с. Орловка, ул. Октябрьская, д. 31"
373;260012;"Амбулатория с. Горнозаводское";"Ставропольский край, Кировский район, с. Горнозаводское, ул. Калинина, д. 90в"
374;260012;"ФАП п. Прогресс";"Ставропольский край, Кировский район, п. Прогресс, ул.  Зеленая, д. 8"
375;260012;"ФАП Крупско-Ульяновский";"Ставропольский край, Кировский район, х. Крупско-Ульяновский, ул. Лесная, д. 13"
376;260012;"ФАП п. Фазанный";"Ставропольский край, Кировский район, п. Фазанный, ул. Заводская, д. 2"
377;260012;"ФАП п. Золка";"Ставропольский край, Кировский район, п. Золка, ул. Крайняя, д. 1"
378;260012;"ФАП х. Пегушин";"Ставропольский край, Кировский район, х. Пегушин, ул. Кооперативная, д. 17"
379;260012;"ФАП х.  Курганный";"Ставропольский край, Кировский район, х. Курганный, ул. Кооперативная, д. 25"
380;260012;"ФАП х. Совпахарь";"Ставропольский край, Кировский район, х. Совпахарь, ул. Советская, д. 4"
381;260012;"ФАП с. Новосреднее";"Ставропольский край, Кировский район, с. Новосреднее, ул. Красная, д. 34"
382;260013;"ГБУЗ СК ""Кочубеевская ЦРБ""";"Ставропольский край, с. Кочубеевское, ул.Восточная, д. 63"
383;260013;"Участковая больница с.Казьминское";"Ставропольский край, Кочубеевский район, с. Казьминское, ул. Калинина, д. 25"
384;260013;"Участковая больница с. Ивановское";"Ставропольский край, Кочубеевский район, с. Ивановское, ул. Юбилейная, д. 15а"
385;260013;"Участковая больница ст.Барсуковская";"Ставропольский край, Кочубеевский район, ст. Барсуковская, ул. Полянского, д. 29"
386;260013;"Участковая больница ст. Беломечётская";"Ставропольский край, Кочубеевский  район, ст. Беломечётская, ул.Садовая, д. 76"
387;260013;"Участковая больница с. Заветное";"Ставропольский край, Кочубеевский район, с. Заветное, ул. Баркова, д. 9"
388;260013;"Амбулатория с. Балахоновское";"Ставропольский край, Кочубеевский район  с. Балахоновское, ул. Красная, д. 17а"
389;260013;"Амбулатория с.Вревское";"Ставропольский край, Кочубеевский район, с.Вревское, ул. Центральная, д. 1"
390;260013;"Амбулатория ст.Георгиевская";"Ставропольский край, Кочубеевский район, ст. Георгиевская, ул. Советская, д. 164"
391;260013;"Амбулатория с. Новая Деревня";"Ставропольский край, Кочубеевский район, с. Новая Деревня, ул. Школьная, д. 1"
392;260013;"Амбулатория с. Надзорное";"Ставропольский край, Кочубеевский район, с. Надзорное, Проточная, д. 10"
393;260013;"ФАП х. Саратовский";"Ставропольский край, Кочубеевский район, х. Саратовский, ул. Мира, д. 59а"
394;260013;"ФАП  п. Тоннельный";"Ставропольский край, Кочубеевский район, п. Тоннельный, ул.Строительная, д. 26"
395;260013;"ФАП х. Рощинский";"Ставропольский край, Кочубеевский район, х. Рощенский, ул. Мира, д. 57"
396;260013;"ФАП х. Андреевский";"Ставропольский край, Кочубеевский район, х. Андреевский, ул. Центральная, д.12"
317;260008;"Амбулатория ст. Рождественская";"Ставропольский край, Изобильненский район, ст. Рождественская, ул. Ленина, д.178"
318;260008;"Амбулатория с. Подлужное";"Ставропольский край, Изобильненский район, с. Подлужное, ул. Калинина, д. 8"
319;260008;"Амбулатория ст. Баклановская";"Ставропольский край, Изобильненский район, ст. Баклановская, ул. Красная,  д. 150"
320;260008;"ФАП х. Беляев";"Ставропольский край, Изобильненский район, х. Беляев, ул. Пролетарская, д. 152"
321;260008;"ФАП п. Новоизобильный";"Ставропольский край, Изобильненский район, п. Новоизобильный, ул. Первомайская, д. 2"
322;260008;"ФАП х. Широбоков";"Ставропольский край, Изобильненский район, х. Широбоков, ул. 40 лет Победы, д. 28"
323;260008;"ФАП с. Найденовка";"Ставропольский край, Изобильненский район, с. Найденовка, ул. Ленина, д. 1"
324;260008;"ФАП х. Спорный";"Ставропольский край, Изобильненский район, х. Спорный, ул. Мира, д.105"
325;260008;"ФАП п. Левоегорлыкский";"Ставропольский край, Изобильненский район, п. Левоегорлыкский, п. Коммунальный, д. 1"
326;260008;"ФАП ст. Филимоновской";"Ставропольский край, Изобильненский район, ст. Филимоновская, ул. Пушкина, д. 6"
327;260008;"ФАП пункт х. Сухой";"Ставропольский край, Изобильненский район, х. Сухой, ул. Тюльпина, д. 30А"
328;260008;"ФАП х. Смыков";"Ставропольский край, Изобильненский район, х. Смыков, ул. Центральная, д. 39"
329;260008;"ФАП ст. Гаевской";"Ставропольский край, Изобильненский район, ст. Гаевская, ул. Краснофлотская, д. 29"
330;260008;"Солнечнодольский филиал МБУЗ ""Изобильненская ЦРБ""ИМРСК";"Ставропольский край, Изобильненский район, п. Солнечнодольск, ул. Энергетиков, д. 17"
304;260009;"ГБУЗ СК ""Изобильненская РСП""";"Ставропольский край, Изобильненский район, г. Изобильный,  ул. Сиреневая, д. 29"
338;260011;"Амбулатория с. Золотаревка";"Ставропольский край, Ипатовский район, с. Золотаревка, ул.Первомайская, д. 80"
339;260011;"Амбулатория пос. Советское Руно";"Ставропольский край, Ипатовский район, п. Советское Руно, ул. Больничная, д. 9"
340;260011;"Амбулатория пос. Большевик";"Ставропольский край, Ипатовский район, п. Большевик, ул. Мира, д. 25"
341;260011;"Амбулатория с.Большая Джалга";"Ставропольский край, Ипатовский район, с. Большая Джалга, ул. Лермонтова, д.34"
342;260011;"Амбулатория с.Кевсала";"Ставропольский край, Ипатовский район, с. Кевсала, ул. Кирова, д.48"
343;260011;"Амбулатория с. Бурукшун";"Ставропольский край, Ипатовский район, с. Бурукшун, пер. Партизанский, д. 2"
344;260011;"Амбулатория с. Добровольное";"Ставропольский край, Ипатовский район, с. Добровольное, ул. Молодежная, д. 8"
345;260011;"Амбулатория с. Лиман";"Ставропольский край, Ипатовский район, с. Лиман, ул. Школьная, д.19/а"
346;260011;"Амбулатория а. Малый Барханчак";"Ставропольский край, Ипатовский район, а. Малый Барханчак, ул. Центральная, д. 13"
347;260011;"Амбулатория с. Октябрьское";"Ставропольский край, Ипатовский район, с. Октябрьское, ул. Октябрьская, д. 146"
348;260011;"Амбулатория с. Первомайское";"Ставропольский край, Ипатовский район, с. Первомайское, ул. Попова, д. 32"
349;260011;"ФАП пос. Винодельненский";"Ставропольский край, Ипатовский район, п. Винодельненский, ул. Мира, д. 2"
350;260011;"ФАП пос. Советское Руно";"Ставропольский край, Ипатовский район, п. Советское Руно, Отделение N 4, территория МО Советскорунного сельсовета."
351;260011;"ФАП пос. Горлинка";"Ставропольский край, Ипатовский район, п. Горлинка, ул. Молодежная, д. 2"
352;260011;"ФАП пос. Новокрасочный";"Ставропольский край, Ипатовский район, п. Новокрасочный, ул. Пролетарская, д. 1"
353;260011;"ФАП с. Красная поляна";"Ставропольский край, Ипатовский район, с. Красная поляна, ул. Механизаторов, д. 8"
354;260011;"ФАП с. Лесная Дача";"Ставропольский край, Ипатовский район, с. Лесная Дача, пер. Советский, д. 1"
355;260011;"ФАП х. Веселый";"Ставропольский край, Ипатовский район, х. Веселый, ул. Е.Хомик, д. 44"
356;260011;"ФАП с. Родники";"Ставропольский край, Ипатовский район, с. Родники, ул. Солнечная, д. 12"
357;260011;"ФАП пос. Залесный";"Ставропольский край, Ипатовский район, п. Залесный, ул. Песчаная, д. 18"
358;260011;"ФАП п. Правокугультинский";"Ставропольский край, Ипатовский район, п. Правокугультинский, ул. Юбилейная, д. 1"
359;260011;"ФАП х. Мелиорация";"Ставропольский край, Ипатовский район, х. Мелиорация, ул. Шоссейная, д. 15"
360;260011;"ФАП а. Юсуп-Кулакский";"Ставропольский край, Ипатовский район, а. Юсуп-Кулакский, ул. Центральная, д. 62"
361;260011;"ФАП с. Софиевка";"Ставропольский край, Ипатовский район, с. Софиевка, ул. Полевая, д. 21"
362;260011;"ФАП пос. Софиевский Городок";"Ставропольский край, Ипатовский район, п. Софиевский г.ок, пер. Дорожный, д. 3, кв. 1"
363;260011;"ФАП пос. Малоипатовский";"Ставропольский край, Ипатовский район, п. Малоипатовский, ул. Северная, д. 1"
364;260011;"ФАП п. Верхнетахтинский";"Ставропольский край, Ипатовский район, п. Верхнетахтинский, ул. Северная, д. 9"
365;260012;"МБУЗ «Кировская ЦРБ»";"Ставропольский край, Кировский район, г. Новопавловск, ул. Кирова, д. 35"
366;260012;"Участковая больница ст. Марьинская";"Ставропольский край, Кировский район, ст. Марьинская, ул. Лермонтова, д. 32а"
367;260012;"Участковая больница ст. Советская";"Ставропольский край, Кировский район, ст. Советская, ул. Революционная, д. 120"
368;260012;"Амбулатория ст.  Зольская,";"Ставропольский край, Кировский район, ст. Зольская, ул. Крупской, д.40"
369;260012;"Амбулатория п. Коммаяк";"Ставропольский край, Кировский район, п. Коммаяк, ул. Юбилейная, д. 2а"
397;260013;"ФАП  х. Раздольный";"Ставропольский край, Кочубеевский район, х. Раздольный, ул. Центральная, д. 30"
398;260013;"ФАП с.Галицино";"Ставропольский край, Кочубеевский район, с. Галицино, ул. Мира, д. 4/1"
399;260013;"ФАП х. Васильевский";"Ставропольский край, Кочубеевский район, х. Васильевский, ул. Комсомольская, д.14"
400;260013;"ФАП х. Петровский";"Ставропольский край, Кочубеевский район, х. Петровский, ул. 40 лет Победы, д. 1/4"
401;260013;"ФАП х.Новозеленчукский";"Ставропольский край, Кочубеевский район, х. Новозеленчукский, ул. Гагарина, д. 147"
402;260013;"ФАП х. Прогресс";"Ставропольский край, Кочубеевский район, х. Прогресс, ул. Октябрьская, д. 19"
403;260013;"ФАП с. Веселое";"Ставропольский край, Кочубеевский район, с. Веселое, ул. Победы, д. 176а"
404;260013;"ФАП с. Воронежское";"Ставропольский край, Кочубеевский район, с. Воронежское, пер. Школьный, д. 3"
405;260013;"ФАП х. Дегтяревский";"Ставропольский край, Кочубеевский район, х. Дегтяревский, ул. Ленина, д. 32"
406;260013;"ФАП ст. Сунженская";"Ставропольский край, Кочубеевский район, ст. Сунженская, ул. Лысенко, д. 19"
407;260013;"ФАП х. Родниковский";"Ставропольский край, Кочубеевский район, х. Родниковский, ул. Садовая, д. 3а"
408;260013;"ФАП х. Усть-Невинский";"Ставропольский край, Кочубеевский район, х. Усть-Невинский, ул. Кубанская, д. 57"
409;260013;"ФАП х Сотниковский";"Ставропольский край, Кочубеевский район, х. Сотникова, ул. Степная, д. 9/1"
410;260013;"ФАП с. Дворцовское";"Ставропольский край, Кочубеевский район, с. Дворцовское, ул. Центральная, д. 33а"
411;260013;"ФАП х.Стародворцовский";"Ставропольский край, Кочубеевский район, х. Стародворцовский, ул. Ленина, д. 48а"
49;260035;"ФАП пос. Семеновка";"Ставропольский край, Георгиевский район, пос. Семеновка, ул. Лесная,  д. 8"
50;260035;"ФАП , пос. Нижнезольский";"Ставропольский край, Георгиевский район, пос. Нижнезольский, ул. Школьная,  д. 13"
51;260035;"ФАП пос. Терский";"Ставропольский край, Георгиевский район, пос. Терский, ул. Школьная,  д. 13"
13310;260035;"Отделение скорой медицинской помощи";"Ставропольский край, Георгиевский район, п. Новый, ул. Апрельская, д. 5"
699;260028;"Участковая больница с. Пелагиада";"Ставропольский край, Шпаковский район, с. Пелагиада, ул. Калинина, д. 171"
700;260028;"Участковая больница с. Надежда";"Ставропольский край, Шпаковский район, с. Надежда, пер. Больничный, д. 1"
701;260028;"Амбулатория с. Верхнерусское";"Ставропольский край, Шпаковский район, с. Верхнерусское, ул. Юбилейная, д. 16"
702;260028;"Амбулатория ст. Новомарьевская";"Ставропольский край, Шпаковский район, ст. Новомарьевская, ул. Свердлова, д. 46"
703;260028;"Амбулатория с. Дубовка";"Ставропольский край, Шпаковский район, с. Дубовка, ул. Шоссейная, д. 12"
704;260028;"Амбулатория с.Татарка ул. Ленина, 59";"Ставропольский край, Шпаковский район, с. Татарка, ул. Ленина, д. 59"
705;260028;"Амбулатория с.Татарка, ул. К. Маркса, 72";"Ставропольский край, Шпаковский район, с. Татарка, ул. К. Маркса, д. 72"
706;260028;"Амбулатория х. Демино";"Ставропольский край, Шпаковский район, х. Демино, ул. Студенческая, д. 1"
707;260028;"Амбулатория с. Казинка";"Ставропольский край, Шпаковский район, с. Казинка, ул. Ленина, д. 71"
708;260028;"ФАП х. Подгорный";"Ставропольский край, Шпаковский район, г. Михайловск, ул. Орджоникидзе, д. 272"
709;260028;"ФАП х. Кожевников";"Ставропольский край, Шпаковский район, г. Михайловск, х. Кожевников"
710;260028;"ФАП х. Нижнерусский";"Ставропольский край, Шпаковский район, х. Нижнерусский, ул. Центральная, д. 45"
711;260028;"ФАП п. Верхнедубовский";"Ставропольский край, Шпаковский район, п. Верхнедубовский, ул. Ленина, д. 64 - 1"
712;260028;"ФАП х. Калиновка";"Ставропольский край, Шпаковский район, х. Калиновка, пер. Кавказский, д. 5"
713;260028;"ФАП х.Темнореченский";"Ставропольский край, Шпаковский район, х. Темноресченский, ул. Невиномысская, д. 33"
714;260028;"ФАП х. Польский";"Ставропольский край, Шпаковский район, х. Польский, ул. Садовая, д. 66"
715;260028;"ФАП п. Приозерный";"Ставропольский край, Шпаковский район, пос. Приозерный, ул. Школьная, д. 17"
716;260028;"ФАП п. Садовый";"Ставропольский край, Шпаковский район, х.Садовый, ул.Островского, д. 42"
717;260028;"ФАП х. Липовчанский";"Ставропольский край, Шпаковский район, х. Липовчанский, ул. Лесная, д. 31"
718;260028;"ФАП с. Пелагиада";"Ставропольский край, Шпаковский район, с. Пелагиада, ул. Ленина, д. 393/"
719;260028;"ФАП х. Холодногорский";"Ставропольский край, Шпаковский район, х. Холодногорский, пер. Южный, д. 11-2"
720;260028;"ФАП х.Ташла";"Ставропольский край, Шпаковский район, х.Ташла, ул. Центральная"
721;260028;"ФАП с. Надежда";"Ставропольский край, Шпаковский район, с. Надежда, ул. Орджоникидзе, д. 81"
722;260028;"ФАП с. Петропавловка";"Ставропольский край, Шпаковский район, с. Петропавловка, ул.Октябрьская, д. 176"
723;260028;"ФАП х. Верхнеегорлыкский";"Ставропольский край, Шпаковский район, х. Верхнеегорлыкский, ул.Пролетарская, д. 19"
724;260028;"Поликлиника г. Михайловск, ул. К.Маркса, 126";"Ставропольский край, Шпаковский район, г. Михайловск, ул. К.Маркса, д. 126"
725;260028;"Поликлиника  г. Михайловск, СНИИСХ,  12";"Ставропольский край, Шпаковский район, г. Михайловск, СНИИСХ,  д. 12"
726;260028;"Поликлиника г. Михайловск, ул. Пушкина, 45А";"Ставропольский край, Шпаковский район, г. Михайловск, ул. Пушкина, 45А"
13311;260028;"ФАП п. Новый Бешпагир";"Ставропольский край, Шпаковский район, п. Новый Бешпагир, ул.Советская, д.26/1"
727;260029;"ГБУЗ СК ""Шпаковская РСП""";"Ставропольский край, Шпаковский район, г. Михайловск,  ул. Ленина, д. 1"
155;260030;"Амбулатория с.Красный Октябрь";"Ставропольский край, Буденновский район, с. Красный Октябрь, ул. 50 лет Октября, д. 5"
156;260030;"Амбулатория п.Искра";"Ставропольский край, Буденновский район, п. Исрка, ул. Октябрьская, д. 1"
157;260030;"Амбулатория с. Новая Жизнь";"Ставропольский край, Буденновский район, с. Новая Жизнь,  ул. Кировская,  д. 19Д"
158;260030;"Амбулатория п.Терский";"Ставропольский край, Буденновский район, п. Терский, пер. Врачебный, д. 5"
230;260065;"Отделение общей врачебной (семейной) практики";"Ставропольский край, г. Невинномысск, ул. Трудовая, д. 84"
231;260066;"ГБУЗ СК ""Городская поликлиника № 2"" г. Невинномысска";"Ставропольский край, г. Невинномысск, ул. Шевченко, д. 7, пер. Спортивный, д. 2"
234;260067;"ГБУЗ СК ""ГСП"" г. Невинномысска";"Ставропольский край, г. Невинномысск, ул. Менделеева, д. 5, Гагарина, д. 53"
235;260067;"Рентгенодиагностический кабинет";"Ставропольский край, г. Невинномысск, ул. Менделеева, д. 5В"
755;260068;"Невинномысская узловая поликлиника РЖД";"Ставропольский край, г. Невинномысск, ул. Кооперативная, д. 174"
238;260069;"ГБУЗ СК ""Городская больница № 2"" г. Пятигорска";"Ставропольский край, г. Пятигорск, ул. Адмиральского, д. 6"
239;260069;"Поликлиника";"Ставропольский край, г. Пятигорск, ул. Адмиральского, д. 2/3"
260;260070;"Поликлиника № 1 города Пятигорска";"Ставропольский край, г. Пятигорск, ул. 1-я Бульварная, д. 37"
261;260070;"Поликлиника";"Ставропольский край, г. Пятигорск, п. Свободы, ул. Энгельса,  д. 110"
262;260070;"Поликлиника";"Ставропольский край, г. Пятигорск, ул. Малыгина, д. 12"
264;260071;"ГБУЗ СК ""Родильный дом"" г. Пятигорска";"Ставропольский край, г. Пятигорск, пр.Калинина, д. 29"
265;260071;"Женская консультация №1";"Ставропольский край, г. Пятигорск, пр. Кирова, д. 39"
266;260071;"Женская консультация №2";"Ставропольский край, г. Пятигорск, ул. Пушкинская, д. 2а"
242;260072;"ГБУЗ СК ''ГДБ"" г. Пятигорска";"Ставропольский край, г. Пятигорск, ул. Пушкинская, д. 4"
243;260072;"детская поликлиника";"Ставропольский край, г. Пятигорск, ул. Калинина, д. 5"
244;260072;"детская поликлиника";"Ставропольский край, г. Пятигорск, ул. Аллея Строителей, д. 2"
245;260072;"детская поликлиника";"Ставропольский край, г. Пятигорск, п. Горячеводский, ул. Ленина, д. 29"
246;260072;"детская поликлиника";"Ставропольский край, г. Пятигорск, ул. Адмиральского, д. 2/3"
249;260073;"ГБУЗ СК ""ГИБ"" г. Пятигорска";"Ставропольский край, г. Пятигорск, Лермонтовский разъезд"
240;260074;"ГБУЗ СК ""Городская поликлиника № 3"" г. Пятигорска";"Ставропольский край, г. Пятигорск, п. Горячеводский, проспект Советской Армии, д. 72, д. 88"
241;260074;"ФАП п.Нижне-Подкумский";"Ставропольский край, г. Пятигорск, п. Нижне-Подкумский, ул. Зубалова, д. 35"
262083;260074;"Поликлиника отделение N 1";"Ставропольский край, г. Пятигорск, п. Горячеводский, ул. Ленина, д. 29, д. 31"
262084;260074;"Поликлиника отделение N 2";"Ставропольский край, г. Пятигорск, п. Горячеводский, ул. Захарова, 12"
262085;260074;"дневной стационар";"Ставропольский край, г. Пятигорск, п. Горячеводский, проспект Советской Армии, д. 95"
262086;260074;"Кабинет терапевта";"Ставропольский край, г. Пятигорск, п. Горячеводский, ст. Константиновская, ул. Октябрьская, д. 110а"
259;260075;"ГБУЗ СК ""ПОД""";"Ставропольский край, г. Пятигорск, пр. Калинина, д. 31"
267;260076;"ГАУЗ СК ""ГСП"" г. Пятигорска";"Ставропольский край, г. Пятигорск, пр-т. 40 лет Октября, д. 19"
268;260076;"Стоматологический кабинет";"Ставропольский край, г. Пятигорск, Кучуры, д. 24"
269;260076;"Стоматологический кабинет";"Ставропольский край, г. Пятигорск , ул. Бештаугорская, д. 45а"
270;260076;"Стоматологический кабинет";"Ставропольский край, г. Пятигорск,  п. Горячеводский, ул. 8-я линия, д.  54"
271;260076;"Стоматологический кабинет";"Ставропольский край, г. Пятигорск, ул. Подстанционная, д. 23"
272;260076;"Стоматологический кабинет";"Ставропольский край, г. Пятигорск, п. Горячеводский, ул. Ленина, д. 25"
273;260076;"Стоматологический кабинет";"Ставропольский край, г. Пятигорск, ул. Пестова, д. 32"
274;260076;"Стоматологический кабинет";"Ставропольский край, г. Пятигорск, ул. Украинская, д. 57"
275;260076;"Стоматологический кабинет";"Ставропольский край, г. Пятигорск, ст. Константиновская, ул. Ленина, д. 11"
276;260076;"Стоматологический кабинет";"Ставропольский край, г. Пятигорск, пос. Горячеводский, ул. Ленина, д. 55"
637;260083;"ГБУЗ СК ""КДКБ""";"Ставропольский край, г. Ставрополь, ул. Семашко, д. 3"
653;260084;"ГБУЗ СК ""КЭД""";"Ставропольский край, г. Ставрополь, ул. Дзержинского, д. 127"
13322;260084;"ГБУЗ СК ""КЭД""";"Ставропольский край, г. Ставрополь, ул. Артема, д. 9"
650;260085;"ГБУЗ СК ""СККОД""";"Ставропольский край, г. Ставрополь, ул. Октябрьская, 182А"
651;260086;"ГБУЗ СК  ""СККПЦ"" ";"Ставропольский край, г. Ставрополь, ул. Ломоносова, д. 44"
638;260087;"ГБУЗ СК ""СККЦСВМП""";"Ставропольский край, г. Ставрополь, ул. Семашко д. 1"
13324;260087;"ГБУЗ СК ""СККЦСВМП""";"Ставропольский край, ул. Лермонтова, д. 208,"
13326;260087;"ГБУЗ СК ""СККЦСВМП""";"Ставропольский край, г. Ставрополь, ул. Ленина, д. 417 б"
605;260088;"ГБУЗ СК ""ГКБ № 2"" г. Ставрополя";"Ставропольский край, г. Ставрополь, ул. Балакирева, д. 5"
266514;260088;"физиокабинет Ставропольской ГБ N 2";"Ставропольский край, г. Ставрополь, ул. Дзержинского, д. 125"
266515;260088;"физиокабинет Ставропольской ГБ N 2";"Ставропольский край, г. Ставрополь, ул. Дзержинского, д. 127"
608;260089;"МБУЗ ""ГДП №1""";"Ставропольский край, г. Ставрополь, ул. Ленина, д. 470"
631;260101;"НУЗ ""Узловая поликлиника на ст. Ставрополь ОАО ""РЖД""";"Ставропольский край, г. Ставрополь, ул. Войтика, д. 2а"
13329;260101;"Узловая поликлиника на ст. Ставрополь ОАО ""РЖД"" г. Светлоград";"Ставропольский край, Петровский район, г. Светлоград, мкр. Промзона"
13330;260101;"Узловая поликлиника на ст. Ставрополь ОАО ""РЖД"" г. Михайловск";"Ставропольский край, Шпаковский район, г. Михайловск, станция Палагиада, Промзона"
606;260102;"ООО ""ВИЗИТ-Медцентр""";"Ставропольский край, г. Ставрополь, ул. Мира, д. 456А"
652;260103;"ООО ""КВИНТЭСС-ККСП""";"Ставропольский край, г. Ставрополь, ул. Мира, д. 338а"
635;260104;"ООО «ЦКФФ»";"Ставропольский край, г. Ставрополь, ул. 50 лет ВЛКСМ, д. 50/2"
636;260104;"ООО «ЦКФФ» Поликлиника";"Ставропольский край, г. Ставрополь, ул. Вокзальная, д.13"
13337;260104;"ООО ""ЦКФФ"" Поликлиника (ул. Гражданская, д. 9)";"Ставропольский край, г. Ставрополь, ул. Гражданская, д. 9"
654;260105;"ГБУЗ СК ""МедЦАмДи"" г. Ставрополь";"Ставропольский край, г. Ставрополь, ул. Тухачевского, д. 17"
655;260105;"ГБУЗ СК ""МедЦАмДи"" г. Буденновск";"Ставропольский край, г. Буденновск, проспект Калинина, д. 2"
656;260105;"ГБУЗ СК ""МедЦАмДи"" г-к. Железноводск";"Ставропольский край, г. Железноводск, ул. Чапаева, д. 5"
657;260105;"ГБУЗ СК ""МедЦАмДи"" г. Кисловодск ";"Ставропольский край, г. Кисловодск, ул. Кутузова, д. 127"
266389;260105;"ГБУЗ СК ""МедЦАмДи"" г. Светлоград";"Ставропольский край, Петровкий район, г. Светлоград, ул. Калинина, д. 67"
623;260106;"МАУЗ ГП № 3";"Ставропольский край, г. Ставрополь, пр. Юности, д. 42"
13327;260106;"Кабинет ВОП";"Ставропольский край, г. Ставрополь, пр-кт Кулакова, д. 49/4"
609;260110;"МБУЗ города Ставрополя ""ГДП №3""";"Ставропольский край, г. Ставрополь, ул. Тухачевского, д. 17б"
262099;260118;"Клиника микрохирургии глаза";"Ставропольский край, г. Ставрополь, ул. Ленина, д. 417"
266501;260118;"Клиника пограничных состояний ";"Ставропольский край, г. Ставрополь, ул. Ленина, д. 417 (литер Д)"
541;260120;"ГБУЗ СК ""Новоалександровская РСП""";"Ставропольский край, Новоалександровский район, г. Новоалександровск,  ул. Ленина, д.109"
658;260121;"ФКУЗ ""МСЧ МВД России по Ставропольскому краю""";"Ставропольский край, г. Ставрополь, пр. Октябрьской Революции, д. 51-53"
236;260122;"ФГБУ ПГНИИК ФМБА России";"Ставропольский край, г. Пятигорск, пр. Кирова, д. 30"
237;260122;"Научно-экспериментальный диагностический центр ";"Ставропольский край, г. Пятигорск, ул. Крайнего, д. 3А"
254;260123;"ООО ""Диагностический центр ""ЛабМед""";"Ставропольский край, г. Пятигорск, пр. Калинина, д. 31"
255;260124;"ООО ""Лаборатория №1""";"Ставропольский край, г. Пятигорск, ул. Бештаугорская, д. 3"
256;260125;"ООО Глазная клиника ""Ленар""";"Кабардино-Балкарская республика, г. Нальчик, ул. Ногмова, д. 80"
257;260125;"Обособленное подразделение";"Ставропольский край, г. Пятигорск, ул. Пушкинская, д. 31, корпус 4"
762;260129;"РАЗВИТИЕ ДНК";"Ставропольский край, г. Ставрополь, ул. Ломоносова, д.5 А"
258;260130;"Поликлиника";"Ставропольский край, г. Пятигорск, ул. 295 Стрелковой Дивизии, д. 19. к. 2"
226;260131;"ГБУЗ СК ""ГВФД"" г. Невинномысска";"Ставропольский край, г. Невинномысск, ул. Павлова, д. 13"
233;260064;"Детская поликлиника";"Ставропольский край, г. Невинномысск, ул. Гагарина, д. 57"
228;260065;"ГБУЗ СК ""Городская поликлиника № 1"" г. Невинномысска";"Ставропольский край, г. Невинномысск, ул. Низяева, д. 33"
247;260072;"детская поликлиника";"Ставропольский край, г. Пятигорск, ст. Константиновская, ул. Октябрьская, д. 110"
248;260072;"детская поликлиника";"Ставропольский край, г. Пятигорск, пос.Свободы, ул. Энгельса, д. 110"
277;260076;"Стоматологический кабинет";"Ставропольский край, г. Пятигорск, ул. Панагюриште, д. 14 а"
278;260076;"Стоматологический кабинет";"Ставропольский край, г. Пятигорск, ул. Университетская, д. 6"
279;260076;"Детское отделение";"Ставропольский край, г. Пятигорск, проспект Калинина, д. 5"
280;260076;"терапевтическое отделение №3";"Ставропольский край, г. Пятигорск, ул. Шатила д. 20"
13339;260076;"Стоматологический кабинет";"Ставропольский край, г. Пятигорск, ул. Февральская, д. 59"
281;260077;"ГБУЗ СК ""ГКБ"" г. Пятигорска";"Ставропольский край, г. Пятигорск, ул. Пирогова, д. 22"
263;260078;"ГБУЗ СК ""ПЦСВМП""";"Ставропольский край, г. Пятигорск, проспект Калинина, д. 33, ул. Пирогова, д. 22"
659;260079;"АНМО ""СКККДЦ"" г.Ставрополь";"Ставропольский край, г. Ставрополь, ул.Ленина, д. 304"
660;260079;"АНМО ""СКККДЦ"" г.Невинномысск";"Ставропольский край, г. Невинномысск, ул.Низяева, д. 1"
639;260080;"ГБУЗ ""ККИБ"" г.Ставрополь";"Ставропольский край, г. Ставрополь, ул. Серова, д. 521"
649;260081;"ГБУЗ СК ""КККД""";"Ставропольский край, г. Ставрополь, ул. Пригородная, д. 224а"
640;260082;"ГБУЗ СК КККВД";"Ставропольский край, г. Ставрополь, ул. Достоевского, д. 52, литер А"
641;260082;"ГБУЗ СК КККВД  г.Георгиевск, ул. Гагарина,87";"Ставропольский край, г. Георгиевск, ул. Гагарина, д. 87"
643;260082;"ГБУЗ СК КККВД г. Кисловодск ул.Ермолова, д.8";"Ставропольский край, Предгорный район, г. Кисловодск, ул. Ермолова, д. 8"
644;260082;"ГБУЗ СК КККВД г. Кисловодск ул. Мира, д.7";"Ставропольский край, Предгорный район, г. Кисловодск, ул. Мира, д. 7"
645;260082;"ГБУЗ СК КККВД г. Невинномысск, ул. Революционная, д. 18";"Ставропольский край, г. Невинномысск, ул. Революционная, д. 18"
648;260082;"ГБУЗ СК КККВД г. Пятигорск";"Ставропольский край, Предгорный район, г. Пятигорск, Лермонтовский разъезд"
13340;260082;"ГБУЗ СК КККВД (ул. Дзержинского, д. 91)";"Ставропольский край, г. Ставрополь, ул. Дзержинского, д. 91"
13341;260082;"ГБУЗ СК КККВД (ул. Достоевского, д. 52)";"Ставропольский край, г. Ставрополь, ул. Достоевского, д. 52, литер Г"
610;260090;"МБУЗ ""ГДП №2""";"Ставропольский край, г. Ставрополь, ул. Маршала Жукова, д. 50"
612;260091;"МБУЗ Городская клиническая больница №3 г.Ставрополь";"Ставропольский край, г. Ставрополь, ул. Ленина, д. 417"
613;260092;"МБУЗ ""ГКБ СМП г.Ставрополя""";"Ставропольский край, г. Ставрополь,  ул. Тухачевского, д. 17"
617;260093;"МБУЗ городская поликлиника №1 г.Ставрополя";"Ставропольский край, г. Ставрополь, ул. Ломоносова, д. 5"
618;260093;"Филиал №1";"Ставропольский край, г. Ставрополь, ул. Мира, д. 367/23"
619;260094;"МБУЗ городская поликлиника №2";"Ставропольский край, г. Ставрополь, ул. Старомарьевское шоссе, д. 3"
620;260094;"МБУЗ городская поликлиника № 2 Филиал № 1";"Ставропольский край, г. Ставрополь, ул. Мира, д. 165"
621;260094;"МБУЗ городская поликлиника № 2 Офис филиала № 1";"Ставропольский край, г. Ставрополь, ул. Маяковского, д. 15"
622;260094;"МБУЗ городская поликлиника № 2 Офис врача общей практики";"Ставропольский край, г. Ставрополь, ул. Чапаева, д. 7"
624;260095;"ГАУЗ СК ""ГСП № 1"" г. Ставрополя";"Ставропольский край, г. Ставрополь, ул. Доваторцев, д. 50/2"
625;260096;"ГАУЗ СК ""ГСП № 2"" г. Ставрополя";"Ставропольский край, г. Ставрополь, ул. Руставели, д. 34 а"
607;260097;"МБУЗ г. Ставрополя ""ГДКБ им .Г.К.Филиппского """;"Ставропольский край, г. Ставрополь,  ул. Пономарева, д. 5"
627;260098;"МБУЗ ""Клиническая поликлиника №6"" города Ставрополя";"г. Ставрополь, ул. Тухачевского, д. 17"
626;260099;"МБУЗ ""КДП"" ";"Ставропольский край, г. Ставрополь, ул. Серова, д. 281А"
632;260100;"МБУЗ ""Физиотерапевтическая поликлиника""";"Ставропольский край, г. Ставрополь, ул. Дзержинского, д. 127"
614;260107;"ФБУ ""1602 ОВКГ"" Минобороны России";"Ставропольский край, г. Ставрополь, ул. Герцена, д. 102"
615;260107;"ФБУ ""1602 ОВКГ"" Минобороны России";"Ставропольский край, г. Ставрополь, ул. Морозова, д. 66"
262090;260107;"госпиталь г. Буденновск";"Ставропольский край, г. Буденновск, микрорайон ""Северный"""
633;260108;"МАУЗ ""ЦВМР""";"Ставропольский край, г. Ставрополь, ул. Кулакова, д. 5"
611;260109;"ГБУЗ СК ""ГКДСП"" г. Ставрополя";"Ставропольский край, г. Ставрополь, пр. Октябрьской Революции, д. 26-28"
266534;260110;"МБДОУ ""ЦРР Д/С N15""";"Ставропольский край, г. Ставрополь, ул. Тухачевского, д. 26/8"
604;260111;"ООО ""СтавроДент""";"Ставропольский край, г. Ставрополь, ул. Комсомольская, д. 41, офис 3"
630;260112;"МАУЗ ""МЦОМЗ""";"Ставропольский край, г. Ставрополь, ул .Бруснева, д. 6/1"
266390;260112;"ФГУКОУ ""Ставропольское президентское кадетское училище""";"Ставропольский край, г. Ставрополь, ул. Ленина, д. 328"
250;260113;"ЛПУП «Курортная поликлиника им. Н.И.Пирогова с пансионатом с лечением «Искра»";"Ставропольский край, г. Пятигорск, пр.Кирова, д. 19"
634;260114;"МБУЗ ""Центр ВОП""";"Ставропольский край, г. Ставрополь, улица Воронежская, д. 14а"
756;260115;"Стоматология Брагина";"Ставропольский край, г. Ставрополь, ул. Мира, д. 236, оф.16"
628;260118;"Клиника эндоскопической и малоинвазивной хирургии ";"Ставропольский край, г. Ставрополь, ул. 50 лет ВЛКСМ, д. 18"
629;260118;"Стоматологическая поликлиника";"Ставропольский край, г. Ставрополь, ул. М.Морозова, д. 6"
13301;260133;"МБУЗ ""ЦВМиР""";"Ставропольский край, г. Невинномысск, ул. Чайковского, д. 1"
13313;260136;"Филиал ООО ""МЕДИС"" (микрорайон 7/1, позиция 36)";"Ставропольский край, г. Буденновск, микрорайон 7/1, позиция 36"
13314;260136;"Филиал ООО ""МЕДИС"" (микрорайон 7, д. 25)";"Ставропольский край, г. Буденновск, микрорайон 7, д. 25"
13315;260136;"Стоматологический кабинет ООО ""МЕДИС""";"Ставропольский край, г. Буденновск, ул. Розы Люксембург, д. 1"
13332;260137;"ООО ""Нано-Гистолог""";"Ставропольский край, г. Ставрополь, ул. 50 лет ВЛКСМ, д. 69/2"
13319;260138;"ГБУЗ СК ""ССМП"" г. Железноводск";"Ставропольский край, г. Железноводск, ул. Чапаева, д. 5"
13328;260140;"МБУЗ ""ССМП"" г. Ессентуки";"Ставропольский край, г. Ессентуки, ул. Октябрьская, д. 460а"
13325;260141;"МБУ ССМП (ул. Артема, д. 35)";"Ставропольский край, г. Ставрополь, ул. Артема, д. 35"
13331;260141;"МБУ ССМП";"Ставропольский край, г. Ставрополь, ул. Воронежская, д. 14а; ул. Тухачевского, д. 17; ул. Васильева, д. 7, кв.107; ул. Родосская, д. 5"
13302;260143;"МУЗ ""ССМП""";"Ставропольский край, г. Кисловодск, ул. Тельмана, д. 1"
851;260144;"АНМО ""Диализный центр""";"Ставропольский край, г. Ставрополь, ул. Чехова, д. 75, кор. А"
13342;260146;"МБУЗ ""ПССМП""";"Ставропольский край, г. Пятигорск, ул. Пирогова, д. 22, Лермонтовский разъезд"
13343;260146;"Подстанция п. Свободы";"Ставропольский край, г. Пятигорск, п. Свободы, ул. Пащенко, д. 112"
13344;260147;"МБУЗ ""ССМП""";"Ставропольский край, г. Невинномысск, переулок Клубный, д. 17"
13335;260154;"МУП ""СХП"" (пр-т Ворошилова, д.7/2 А)";"Ставропольский край, г. Ставрополь, пр-т Ворошилова, д. 7/2А"
13336;260154;"МУП ""СХП"" (ул. Советская, д. 6)";"Ставропольский край, г. Ставрополь, ул. Советская, д. 6"
13333;260160;"ГБУЗ МЦ "" Юность"" ФМБА  России";"Ставропольский край, г. Ессентуки, ул. Советская, д. 24"
13334;260160;"ФГБУЗ МЦ "" Юность""";"Ставропольский край, г. Кисловодск, Район горы Малое Седло"
266502;260161;"СКУ ""Санаторий имени Георгия Димитрова""";"Ставропольский край, г. Кисловодск, проcпект Ленина, 30-32, пр-кт Ленина/Дзержинского/Урицкого 9/19-21/18"
266503;260163;"ФГУП ""Пятигорское протезно-ортопедическое предприятие""";"Ставропольский край, г. Пятигорск, ул. Октябрьская, д. 43"
266504;260166;"ООО ""Нефрологический центр""";"Ставропольский край, г. Ставрополь, ул. Доваторцев, д. 53б"
266505;260171;"Лаборатория ООО ""Биотест""";"Ставропольский край, г. Пятигорск, ул. Баксанская, д. 28"
266500;261118;"ГБОУ ВПО СТГМУ клиника микрохирургии глаза";"Ставропольский край, Ставрополь, Ленина, д. 417"
13304;261132;"ООО ""ЭМСИПИ-Медикейр""  г. Ессентуки";"Ставрапольский Край, г. Ессентуки, ул. Пятигорская, ст. Золотушка, д. 149"
262082;262082;"ГБУЗ СК КККВД г. Ессентуки";"Ставропольский край, г. Ессентуки, ул. Интернациональная, д. 35"
266506;260171;"Процедурный кабинет ООО ""Биотест""";"Ставропольский край, г. Кисловодск, пр-кт Первомайский, д. 10"
266507;260171;"Поликлиника ООО ""Биотест""";"Ставропольский край, г. Пятигорск, ул. Адмиральского, д. 6а"
266540;260176;"АНМО ""Нефрологический центр""";"Ставропольский край, г. Ставрополь, ул. Чехова, д. 75А"
266547;260176;"Филиал АНМО ""Нефрологический центр"" в г. Георгиевске";"Ставропольский край, г. Георгиевск, ул. Филатова, д. 3"
13306;261079;"АНМО ""СКККДЦ"" г. Невинномысск";"Ставропольский край, г. Невинномысск, ул.Низяева, д. 1"
261082;261082;"ГБУЗ СК ""КККВД"" г. Георгиевск";"Ставропольский край, г. Георгиевск, ул. Гагарина, д. 87"
147;260003;"ФАП в с. Вознесеновское";"Ставропольский край, Апанасенковский район, с. Вознесеновское, ул. Красная, д. 6"
4;260004;"Амбулатория ст-ца Воровсколесская";"Ставропольский край, Андроповский район, ст-ца Воровсколесская,  ул. Красная, д. 97"
5;260004;"Андроповская ЦРБ";"Ставропольский край, Андроповский район, с. Курсавка, ул. Войтика, д. 205, ул. Привольная, д. 23"
6;260004;"Амбулатория с. Янкуль";"Ставропольский край, Андроповский район, с. Янкуль, ул. Победы, д. 8"
7;260004;"Амбулатория с. Крымгиреевское";"Ставропольский край, Андроповский район, с. Крымгиреевское,  ул. Строителей, д. 6"
8;260004;"Амбулатория с. Водораздел";"Ставропольский край, Андроповский район, с. Водораздел,  ул. Шоссейная, д. 17"
9;260004;"Амбулатория п. Новый Янкуль";"Ставропольский край, Андроповский район, п. Новый Янкуль, ул. Комсомольская, д. 8"
10;260004;"Амбулатория с. Солуно-Дмитриевское";"Ставропольский край, Андроповский район, с. Солуно-Дмитриевское,  ул. Григорьева, д. 1/2"
11;260004;"Амбулатория с. Казинка";"Ставропольский край, Андроповский район, с. Казинка, ул. Советская, д. 15"
12;260004;"Амбулатория с. Красноярское";"Ставропольский край, Андроповский район, с. Красноярское, ул. Подтенная, д. 17"
13;260004;"ФАП с. Султан";"Ставропольский край, Андроповский район, с. Султан, ул. Ленина, д. 74, офис 1"
14;260004;"ФАП с. Подгорное";"Ставропольский край, Андроповский район, с. Подгорное, ул. Невинномысская, д. 7"
107;260006;"Стоматологическая Поликлиника ";"Ставропольский край, Благодарненский район, г. Благодарный,  пл. Строителей, д. 26"
108;260006;"Амбулатория с. Александрийское ";"Ставропольский край, Благодарненский район, с. Александрия, ул. Столбовая, д. 29"
109;260006;"Амбулатория с.Бурлацкое";"Ставропольский край, Благодарненский район, с. Бурлацкое, пер. Больничный, д. 1"
110;260006;"Амбулатория п.Ставропольский";"Ставропольский край, Благодарненский район, п. Ставропольский, ул. Асфальтная, д. 1а"
111;260006;"Амбулатория с.Алексеевское";"Ставропольский край, Благодарненский район, с. Алексеевское, ул. Ленина, д. 85"
112;260006;"Амбулатория с.Елизаветинское";"Ставропольский край, Благодарненский район, с. Елизаветинское, ул. Ленина, д.149"
113;260006;"Амбулатория с.Спасское";"Ставропольский край, Благодарненский район, с. Спасское, ул. Красная, д. 88"
114;260006;"Амбулатория с.Сотниковское";"Ставропольский край, Благодарненский район, с. Сотниковское, ул.Тучина, д. 26"
282;260007;"МБУЗ Грачевская ЦРБ";"Ставропольский край, Грачевский район, с. Грачевка,  ул. Южная, д. 53"
283;260007;"Кугультинская участковая больница";"Ставропольский край, Грачевский район, с. Кугульта ,  ул. Больничная, д. 29"
284;260007;"Бешпагирская участковая больница";"Ставропольский край, Грачевский район, с. Бешпагир ,  ул. Ключевая, д. 40"
285;260007;"Спицевская участковая больница";"Ставропольский край, Грачевский район, с. Спицевка ,  ул. Ленина, д. 7а, ул. Первомайская, д. 4"
286;260007;"Сергиевская участковая больница";"Ставропольский край, Грачевский район, с. Сергиевское,  ул. К. Маркса, д. 97"
287;260007;"Старомарьевская участковая больница";"Ставропольский край, Грачевский район, с. Старомарьевка,  ул. Свердлова, д. 6"
288;260007;"ФАП с.Красное";"Ставропольский край, Грачевский район, с. Красное,  ул. Красная, д. 43"
289;260007;"ФАП с.Тугулук";"Ставропольский край, Грачевский район, с. Тугулук,  ул. Ленина, д. 46"
412;260013;"ФАП а. Карамурза";"Ставропольский край, Кочубеевский район, аул Карамурза, ул. Луговая, д. 14"
413;260013;"ФАП ст. Новоекатериновская";"Ставропольский край, Кочубеевский район, ст. Новоекатериновская, ул. Центральная, д. 9"
414;260013;"ФАП х. Степной";"Ставропольский край, Кочубеевский район, х. Степной, ул. Центральная, д. 44/2"
415;260013;"ФАП х. Мищенский";"Ставропольский край, Кочубеевский район, х. Мищенский, ул. Молодёжная, д. 17/1"
416;260013;"ФАП х. Беловский";"Ставропольский край, Кочубеевский район, х. Беловский, ул. Центральная, д. 75"
417;260013;"ФАП х. Харьковский";"Ставропольский край, Кочубеевский район, х. Харьковский, ул. Садовая, д. 12/2"
13303;260013;"Здравпунт с. Цветное";"Ставропольский край, Кочубеевский район, с. Цветное, ул. Садовая, д. 1"
418;260014;"МУЗ ""Красногвардейская ЦРБ""";"Ставропольский край, Красногвардейский район, с. Красногвардейское, ул. Ярмарочная, д. 1"
419;260014;"Участковая больница с.Привольное";"Ставропольский край, Красногвардейский район, с. Привольное, ул. Ленинская, б/н"
420;260014;"Участковая больница с.Дмитриевское";"Ставропольский край, Красногвардейский район, с. Дмитриевское, ул. Октябрьская, д. 21"
421;260014;"Участковая больница с.Ладовская Балка";"Ставропольский край, Красногвардейский район, с. Ладовская Балка, ул. Мира, д. 2"
422;260014;"Участковая больница с.Преградное";"Ставропольский край, Красногвардейский район, с. Преградное, ул. Октябрьская, д. 8"
423;260014;"Амбулатория с.Новомихайловское";"Ставропольский край, Красногвардейский район, с. Новомихайловское, пер. Школьный, д. 4"
424;260014;"ФАП п.Коммунар";"Ставропольский край, Красногвардейский район, п. Коммунар, ул. Школьная, д. 47"
425;260014;"ФАП п.Штурм";"Ставропольский край, Красногвардейский район, п. Штурм, ул. Комсомольская, д. 42"
426;260014;"ФАП с.Покровское";"Ставропольский край, Красногвардейский район, с. Покровское, ул. Шоссейная, д. 95"
427;260014;"ФАП п. Медвеженский";"Ставропольский край, Красногвардейский район, п. Медвеженский, ул. Школьная, д. 27"
428;260014;"ФАП с.Родыковское";"Ставропольский край, Красногвардейский район, с. Родыки, ул. Памяти 11-ти, д. 22"
429;260014;"Здрав. пункт х.Средний";"Ставропольский край, Красногвардейский район, х. Средний, ул. 60лет Октября, б/н"
430;260015;"МБУЗ ""Курская ЦРБ""";"Ставропольский край, Курский район, ст. Курская, ул. Ессентукская, д. 47, пер. Октябрьский, д. 4а, ул. Гагарина, д. 1, пер. Школьный,  д. 6а"
431;260015;"Поликлиника ст. Курская";"Ставропольский край, Курский район, ст. Курская, пер. Школьный, д. 6"
432;260015;"Детская консультация";"Ставропольский край, Курский район, ст. Курская, ул. Советская, д. 4"
433;260015;"Стоматолгическое отделение";"Ставропольский край, Курский район, ст. Курская, ул. Акулова, д. 74"
434;260015;"Участковая больница ст. Галюгаевская";"Ставропольский край, Курский район, ст. Галюгаевская, ул. Ленина, д. 1"
435;260015;"Амбулатория п. Балтийский";"Ставропольский край, Курский район, п. Балтийский, ул. Черемушки, д.16"
436;260015;"Амбулатория п. Мирный";"Ставропольский край, Курский район, п. Мирный, ул. Советская, д. 26"
437;260015;"Амбулатория с. Ростовановское";"Ставропольский край, Курский район, с. Ростовановское, ул. Ленина, д. 10"
438;260015;"Амбулатория х. Пролетарский";"Ставропольский край, Курский район, х. Пролетарский, ул. Мира, д. 13"
439;260015;"Амбулатория с. Полтавское";"Ставропольский край, Курский район, с. Полтавское, ул. Грейдерная, д. 1"
440;260015;"Амбулатория ст. Стодеревская";"Ставропольский край, Курский район, ст. Стодеревская, ул. Терешковой, д. 43"
441;260015;"Амбулатория с. Русское";"Ставропольский край, Курский район, с. Русское, ул. Школьная, д. 16д, кв. 1"
442;260015;"Амбулатория с. Русское";"Ставропольский край, Курский район, с. Русское, ул. Молодежная, д. 11"
443;260015;"Амбулатория с. Эдиссия";"Ставропольский край, Курский район, с. Эдиссия, ул. Свердлова, д. 11"
444;260015;"Амбулатория п. Рощино";"Ставропольский край, Курский район, п. Рощино, ул. Зеленая, д. 2а"
476;260017;"МБУЗ  "" Нефтекумская ЦРБ""";"Ставропольский край, Нефтекумский район, г. Нефтекумск, ул. Транспортная, д. 22"
510;260019;"Амбулатория п.Краснозоринский";"Ставропольский край, Новоалександровский район, п. Краснозоринский, ул.Ленина, д. 15"
511;260019;"Амбулатория п. Горьковкий";"Ставропольский край, Новоалександровский район, п. Горьковкий, ул. Комсомольская, д. 25"
512;260019;"Амбулатория п.Радуга";"Ставропольский край, Новоалександровский район, п. Радуга, ул. А.Павлова, д. 21"
513;260019;"ФАП п.Ударный";"Ставропольский край, Новоалександровский район, п. Ударный,  ул. Южная"
514;260019;"ФАП п. Присадовый";"Ставропольский край, Новоалександровский район, п. Присадовый, ул. Степная, д. 1"
515;260019;"ФАП п.Курганный";"Ставропольский край, Новоалександровский район, п. Курганный, ул.Социалистическая, д. 25"
516;260019;"ФАП п.Славенский";"Ставропольский край, Новоалександровский район, п. Славенский."
517;260019;"ФАП х.Краснодарский";"Ставропольский край, Новоалександровский район, х. Краснодарский, ул. Калинина, д. 41"
518;260019;"ФАП п.Восточный";"Ставропольский край, Новоалександровский район, п. Восточный"
519;260019;"ФАП х.Воровский";"Ставропольский край, Новоалександровский район, х. Воровский, пер. Школьный, д. 2а"
520;260019;"ФАП ст.Воскресенская";"Ставропольский край, Новоалександровский район, ст-ца Воскресенская, ул. Комсомольская, д. 1"
521;260019;"ФАП п.Встречный";"Ставропольский край, Новоалександровский район, п. Встречный, ул. Советская, д. 3"
522;260019;"ФАП х.Красночервонный";"Ставропольский край, Новоалександровский район, х. Красночервонный, ул. 60 лет Октября, д. 4"
523;260019;"ФАП п.Краснокубанский";"Ставропольский край, Новоалександровский район, п. Краснокубанский, д. 55"
524;260019;"ФАП п.Крутобалковский";"Ставропольский край, Новоалександровский район, п. Крутобалковский, ул. Восточная, д.1"
525;260019;"ФАП п.с.т Озерный";"Ставропольский край, Новоалександровский район, п. Озерный, д. 91"
526;260019;"ФАП х.Румяная Балка";"Ставропольский край, Новоалександровский район, х. Румяная Балка, ул. Южная, д. 34"
527;260019;"ФАП п.Равнинный";"Ставропольский край, Новоалександровский район, п. Равнинный, ул. Советская, д. 8, кв. 1"
445;260015;"Амбулатория с. Серноводское";"Ставропольский край, Курский район, с. Серноводское, ул. Курортная, д. 77б"
446;260015;"Амбулатория с. Каново";"Ставропольский край, Курский район, с. Каново, ул. Ленина, д. 17а"
447;260015;"ФАП п. Ага-Батыр";"Ставропольский край, Курский район, пос. Ага-Батыр, ул. Ленина, д. 24"
448;260015;"ФАП с. Уваровское";"Ставропольский край, Курский район, с. Уваровское, ул. Колхозная, д. 22"
449;260015;"ФАП х. Зайцев";"Ставропольский край, Курский район, х. Зайцев, ул. Грейдерная, д. 37"
450;260015;"ФАП х. Березкин";"Ставропольский край, Курский район, х. Березкин, ул. Школьная, д.12, кв. 2"
451;260015;"ФАП х. Широкий Камыш";"Ставропольский край, Курский район, х. Широкий Камыш, ул. Восточная, д. 3"
452;260015;"ФАП п. Ровный";"Ставропольский край, Курский район, п. Ровный, ул. Пшеничная, д.21 кв. 2"
453;260015;"ФАП  х. Привольный";"Ставропольский край, Курский район, х. Привольный, ул. Центральная, д. 32"
454;260015;"ФАП х. Дыдымкин";"Ставропольский край, Курский район, х. Дыдымкин, ул. Тивилева, д. 16"
455;260015;"ФАП х. Кировский";"Ставропольский край, Курский район, х. Кировский, ул. Кооперативная, д. 34"
456;260015;"ФАП  х. Медведев";"Ставропольский край, Курский район, х. Медведев, ул. Кольцевая, д. 28г"
457;260015;"ФАП х. Графский";"Ставропольский край, Курский район, х. Графский, ул. Восточная, д.52, кв. 1"
458;260016;"МБУЗ «Левокумская ЦРБ»";"Ставропольский край, Левокумский район, с. Левокумское, ул. Гагарина, д. 5, ул. Громки,  д. 1"
459;260016;"Поликлиника с. Левокумское";"Ставропольский край, с. Левокумское, ул. Калинина, д. 92А"
460;260016;"Участковая больница с. Величаевское";"Ставропольский край, с. Величаевское, ул. Энгельса,  д. 4"
461;260016;"Амбулатория с. Приозерское";"Ставропольский край, с. Приозерское, ул. Калашникова, д. 33"
462;260016;"Амбулатория с. Урожайное";"Ставропольский край, с. Урожайное, ул. Гулая,  д. 72"
463;260016;"Амбулатория с. Турксад";"Ставропольский край, с. Турксад, ул. Невинномысская, д. 17"
464;260016;"Амбулатория с. Владимировка";"Ставропольский край, с. Владимировка, ул. Свободы,  д.  69"
465;260016;"Амбулатория п. Заря";"Ставропольский край, пос. Заря, ул. Ленина,  д.  8"
466;260016;"Амбулатория с. Правокумское";"Ставропольский край, с. Правокумское, ул. Пухова,  д. 36"
467;260016;"Амбулатория п. Кумская Долина";"Ставропольский край, пос. Кумская Долина, ул. Кочубея,  д. 38"
468;260016;"Амбулатория п. Новокумский";"Ставропольский край, пос. Новокумский, ул. Школьная,  д. 14"
469;260016;"Амбулатория с. Николо-Александровское ";"Ставропольский край, с. Николо-Александровское, пер. Амбулаторный,  д. 2"
470;260016;"ФАП с. Бургун-Маджары";"Ставропольский край, с. Бургун-Маджары, ул. Ленина,  д. 28/1"
471;260016;"ФАП с. Величаевское";"Ставропольский край, с. Величаевское, ул. Чернышова, д. 68"
472;260016;"ФАП х. Первомайский ";"Ставропольский край, х. Первомайский, ул. Советская,  д. 14"
473;260016;"ФАП п. Малосадовый ";"Ставропольский край, пос. Малосадовый, ул. Мира, д. 21"
474;260016;"ФАП п. Ленинский";"Ставропольский край, пос. Ленинский, ул. Мира,  д. 29"
475;260016;"ФАП с. Правокумское";"Ставропольский край, с. Правокумское, ул. Гагарина,  д.  5"
477;260017;"Поликлиника г.Нефтекумск";"Ставропольский край, Нефтекумский район, г. Нефтекумск,  микрорайон 2,  д.11, д. 17"
478;260017;"Поликлиника г.Нефтекумск";"Ставропольский край, Нефтекумский район, г. Нефтекумск,  микрорайон 3,  д. 7"
479;260017;"Участковая больница п.Затеречный";"Ставропольский край, Нефтекумский район, п. Затеречный,  ул. Строительная,  д. 1"
480;260017;"Участковая больница с.Ачикулак";"Ставропольский край, Нефтекумский район, с. Ачикулак,  ул. Гвардейская, д. 9"
481;260017;"Участковая больница с.Каясула";"Ставропольский край, Нефтекумский район, с. Каясула,  ул . Ю.Бойко, д. 24"
482;260017;"Амбулатория с.Каратюбе";"Ставропольский край, Нефтекумский район, с. Каратюбе,  ул.Новая, д.16"
483;260017;"Амбулатория с.Тукуй-Мектеб";"Ставропольский край, Нефтекумский район, с. Тукуй-Мектеб, ул.Кирова , д. 21"
484;260017;"Амбулатория с.Махмуд-Мектеб";"Ставропольский край, Нефтекумский район, с. Махмуд-Мектеб,  ул. Горького , д. 2"
485;260017;"Амбулатория с.Новкус-Артезиан";"Ставропольский край, Нефтекумский район, с. Новкус-Артезиан,  ул Садовая, д. 15/1"
486;260017;"ФАП  п.Зимняя Ставка";"Ставропольский край, Нефтекумский район, п. Зимняя  Ставка ,  б/н"
487;260017;"ФАП а.Абдул-Газы";"Ставропольский край, Нефтекуский район, а. Абдул-Газы, ул. А-Х.Эюпова, д. 40"
488;260017;"ФАП а.Озек-Суат";"Ставропольский край, Нефтекуский район, а. Озек-Суат, ул. О.Сеитова, д. 93"
489;260017;"ФАП а.Андрей-Курган";"Ставропольский край, Нефтекуский район, а. Андрей-Курган, ул. Первомайская, д. 4А"
490;260017;"ФАП а.Уллуби-Юрт";"Ставропольский край, Нефтекуский район, а. Уллуби-Юрт, б/н"
491;260017;"ФАП  а.Уч-Тюбе";"Ставропольский край, Нефтекуский район, а. Уч-Тюбе, ул. Ленина, д. 1"
492;260017;"ФАП   а.Зункарь";"Ставропольский край, Нефтекуский район, п. Зункарь, ул.Центральная, д. 1"
493;260017;"ФАП  а.Абрам-Тюбе";"Ставропольский край, Нефтекуский район, а. Абрам-Тюбе, ул.Курманалиева, д. 32Б"
494;260017;"ФАП  а.Кок-Бас";"Ставропольский край, Нефтекуский район, а. Кок-Бас, ул.Ленина, д. 1"
495;260017;"ФАП а.Артезиан-Мангит";"Ставропольский край, Нефтекуский район, а. Артезиан-Мангит,ул.Ленина, д. 28"
496;260017;"ФАП а.Бакрес";"Ставропольский край, Нефтекуский район, а. Бакрес, б/н"
497;260017;"ФАП а. Восточный";"Ставропольский край, Нефтекуский район, с/з Восточный,  ул. Червонная, б/н"
498;260017;"ФАП а.Бейсей";"Ставропольский край, Нефтекуский район, а. Бейсей, б/н"
499;260017;"ФАП а.Махач";"Ставропольский край, Нефтекуский район, а. Махач, б/н"
500;260017;"ФАП а.Бияш";"Ставропольский край, Нефтекуский район, а. Бияш, б/н"
501;260017;"ФАП а.Кунай";"Ставропольский край, Нефтекуский район, а. Кунай, б/н"
502;260017;"ФАП а.Ямангой";"Ставропольский край, Нефтекуский район, а. Ямангой, ул. Ленина, б/н"
503;260018;"ГАУЗ СК ""Стоматологическая поликлиника"" г.Нефтекумск";"Ставропольский край, Нефтекумский район, г. Нефтекумск,  микрорайон 2, д. 31"
504;260019;"МБУЗ ""Новоалександровская ЦРБ""";"Ставропольский край, Новоалександровский район, г. Новоалександровск, пер. Больничный, д. 1"
505;260019;"Участковая больница ст. Григорополисская";"Ставропольский край, Новоалександровский район, ст-ца Григорополисская, ул. Водопадная, д. 56"
506;260019;"Участковая больница ст. Расшеватская";"Ставропольский край, Новоалександровский район, ст-ца Расшеватская, ул. Почтовая, д. 9"
507;260019;"Участковая больница п.Темижбекский";"Ставропольский край, Новоалександровский район, п. Темижбекский, ул. Кооперативная, д.19"
508;260019;"Участковая больница с.Раздольное";"Ставропольский край, Новоалександровский район, с. Раздольное, ул.Мира, д. 9"
509;260019;"Амбулатория ст. Кармалиновская";"Ставропольский край, Новоалександровский район, ст-ца Кармалиновская, ул. Школьная, д. 4"
528;260019;"ФАП п.Светлый";"Ставропольский край, Новоалександровский район, п. Светлый, Промзона"
529;260019;"ФАП х.Красночервонный";"Ставропольский край, Новоалександровский район, х. Красночервонный, ул. Московская, д. 45"
530;260019;"ФАП х.Фельдмаршальский";"Ставропольский край, Новоалександровский район, х. Фельдмаршальский, ул. Ленина, д. 164"
531;260019;"ФАП х.Чапцев";"Ставропольский край, Новоалександровский район, х. Чапцев, ул.Заречная, д. 24"
532;260019;"ФАП п.Южный";"Ставропольский край, Новоалександровский район, п. Южный, д.55"
533;260019;"ФАП х.Родионов";"Ставропольский край, Новоалександровский район, х. Родионов, ул.Степная, д. 17, кв. 1"
534;260019;"ФАП х.Петровский";"Ставропольский край, Новоалександровский район, х. Петровский, ул.Степная, д. 18"
535;260019;"ФАП х.Мокрая Балка";"Ставропольский край, Новоалександровский район, х. Мокрая Балка, ул.Центральная, д. 30"
536;260019;"ФАП п.Дружба";"Ставропольский край, Новоалександровский район, п. Дружба, ул.Заречная, д. 2"
537;260019;"ФАП п.Заречный";"Ставропольский край, Новоалександровский район, п. Заречный, ул. Восточная, д. 6а"
538;260019;"ФАП п.Рассвет";"Ставропольский край, Новоалександровский район, п. Рассвет, ул. Красная, д.10"
539;260019;"ФАП х.Первомайский";"Ставропольский край, Новоалександровский район, п. Первомайский, ул.Смоленская, д. 23"
540;260019;"ФАП х.Керамик";"Ставропольский край, Новоалександровский район, х. Керамик, ул. Заводская,  д.18"
542;260020;"МБУЗ ""Новоселицкая ЦРБ""";"Ставропольский край, Новоселицкий район, с. Новоселицкое, ул. Шоссейная, д. 13"
543;260020;"Участковая больница с. Чернолесское";"Ставропольский край, Новоселицкий район, с. Чернолесское, ул. Октябрьская, д. 174"
544;260020;"Амбулатория с. Китаевское";"Ставропольский край, Новоселицкий район, с. Китаевское, пер. Центральный, д. 11"
545;260020;"Амбулатория с. Журавское";"Ставропольский край, Новоселицкий район, с. Журавское, ул. Шоссейная, д. 5"
546;260020;"ФАП с. Долиновка";"Ставропольский край, Новоселицкий район, с. Долиновка, ул. Байрамова, д. 166"
547;260020;"ФАП пос. Щелкан";"Ставропольский край, Новоселицкий район, п. Щелкан,  ул. Школьная, д. 1а"
548;260020;"ФАП пос. Новый Маяк";"Ставропольский край, Новоселицкий район, п. Новый Маяк,  ул. Школьная, д. 24/1"
549;260020;"ФАП с.Падинского";"Ставропольский край, Новоселицкий район, с. Падинское,  ул. Красная, д. 11"
550;260020;"ФАП х. Жуковский";"Ставропольский край, Новоселицкий район, хут. Жуковский,  ул. Веселая, д. 4"
551;260020;"ФАП пос. Артезианский";"Ставропольский край, Новоселицкий район, пос. Артезианский,  ул.Мира, д. 1"
61;260021;"Участковая больница пос. Прикалаусский";"Ставропольский край, Петровский район, п. Прикалаусский, пер. Больничный, д. 4"
62;260021;"Участковая больница пос. Рогатая Балка";"Ставропольский край, Петровский район, п. Рогатая Балка, ул. Квартальная, д. 1"
63;260021;"Участковая больница  с. Сухая Буйвола";"Ставропольский край, Петровский район, с. Сухая Буйвола, ул. Кузнечная, д. 1"
64;260021;"Амбулатория, с. Рогатая Балка";"Ставропольский край, Петровский район, с. Рогатая Балка, ул. Первомайская, д. 95"
65;260021;"Амбулатория с. Донская Балка";"Ставропольский край, Петровский район, с. Донская Балка, пл. Стадиона, д. 23"
66;260021;"Амбулатория с. Просянка";"Ставропольский край, Петровский район, с. Просянка, ул. Комсомольская, д. 2"
67;260021;"Амбулатория с. Шангала";"Ставропольский край, Петровский район, с. Шангала, ул. 60 лет Октября, д. 31"
68;260021;"ФАП с. Ореховка";"Ставропольский край, Петровский район, с. Ореховка, ул. Красная, д. 63"
69;260021;"ФАП с. Шведино";"Ставропольский край, Петровский район, с. Шведино, ул. Советская, д. 15"
70;260021;"ФАП с. Кугуты";"Ставропольский край, Петровский район, с. Кугуты, ул. Железнодрожная, д. 67"
71;260021;"ФАП х. Веселый";"Ставропольский край, Петровский район, х. Веселый, ул. Комсомольская, д. 27"
72;260021;"ФАП х. Носачев";"Ставропольский край, Петровский район, х. Носачев, ул. Урожайная, д. 79"
73;260021;"ФАП, х Соленое Озеро";"Ставропольский край, Петровский район, х. Соленое Озеро, ул. Курортная, д. 2а"
74;260021;"ФАП пос. Пшеничный";"Ставропольский край, Петровский район, п. Пшеничный, ул. Зеленая, д. 5"
76;260021;"ФАП пос. Горный";"Ставропольский край, Петровский район, п. Горный, ул. Степная, д. 2а"
77;260021;"ФАП, Ферма №1 пос. Рогатая Балка";"Ставропольский край, Петровский район, Ферма N 1 пос. Рогатая Балка, ул. Красная , д. 10а"
78;260021;"ФАП Петровский р-н, пос. Полевой";"Ставропольский край, Петровский район, п. Полевой, ул. Новая д. 7а"
79;260021;"ФАП, пос. Маяк";"Ставропольский край, Петровский район, п. Маяк, ул. Красная, д. 4/1"
80;260021;"ФАП пос. Цветочный";"Ставропольский край, Петровский район, п. Цветочный, ул. Мира, д. 20"
552;260022;"МБУЗ ""Предгорная ЦРБ""";"Ставропольский край, ст. Ессентукская, ул. Павлова, д. 4"
553;260022;"Участковая больница ст. Боргустанская";"Ставропольский край, ст. Боргустанская, ул. кооперативная, д. 18"
554;260022;"Участковая больница ст. Бекешевская";"Ставропольский край, Предгорный район, ст. Бекешевская, ул. Больничная, д. 22"
583;260024;"МБУЗ ""Советская ЦРБ""";"Ставропольский край, Советский район, г. Зеленокумск, ул .Заводская, д.34"
584;260024;"Поликлиника г.Зеленокумск";"Ставропольский край, Советский район, г. Зеленокумск, ул .Заводская, д.34"
585;260024;"Поликлиника с.Солдато-Александровское";"Ставропольский край, Советский район, с. Солдато-Александровское,ул. Шоссейная, д.36а"
586;260024;"Детская поликлиника г.Зеленокумск";"Ставропольский край, Советский район, г. Зеленокумск, ул . Мира, д. 1"
587;260024;"Стоматологическая поликлиника г.Зеленокумск";"Ставропольский край, Советский район, г. Зеленокумск, ул. Заводская, д.3 4"
588;260024;"Участковая больница с.Солдато-Александровское";"Ставропольский край, Советский район, с. Солдато-Александровское, ул. Мельничная, д. 5"
589;260024;"Участковая больница с.Нины";"Ставропольский край, Советский район, с. Нины, ул.Октябрьская, д. 9"
590;260024;"Участковая больница с.Отказное";"Ставропольский край, Советский район, с. Отказное, ул. Ленина, д. 55"
591;260024;"Амбулатория с.Горькая-Балка";"Ставропольский край, Советский район, с. Горькая-Балка, ул. Тургенева, д. 7а"
592;260024;"Амбулатория с.Правокумское";"Ставропольский край, Советский район, с. Правокумское, ул. Ленина, д. 47а"
593;260024;"Амбулатория х.Андреевский";"Ставропольский край, Советский район, х. Андреевский, ул. Мира, д. 2"
594;260024;"Амбулатория х.Восточный";"Ставропольский край, Советский район, х. Восточный, ул Октябрьская, д. 20"
595;260024;"ФАП х. Рог";"Ставропольский край, Советский район, г. Зеленокумск, х. Рог, д. 1а"
596;260024;"ФАП х. Тихомировка ";"Ставропольский край, Советский район, х. Тихомировка, ул. Степная, д. 29/3"
597;260024;"ФАП х. Федоровский ";"Ставропольский край, Советский район, х. Федоровский"
598;260024;"ФАП х. Средний Лес";"Ставропольский край, Советский район, х. Средний Лес, д. 13"
599;260024;"ФАП х. Колесников ";"Ставропольский край, Советский район, х. Колесников, пер.1-й Ленинский пер., д.17а"
665;260025;"Амбулатория с. Богдановка";"Ставропольский край, Степновский район, с. Богдановка, ул. Октябрьская, д. 27"
666;260025;"Амбулатория с. Ольгино";"Ставропольский край, Степновский район, с. Ольгино, ул. Шоссейная.  д. 36"
667;260025;"ФАП п. Новоиргаклинский";"Ставропольский край, Степновский район, п. Новоиргаклинский,  ул. Садовая, д. 5."
668;260025;"ФАП х. Левопаденский";"Ставропольский край, Степновский район, х. Левопаденский, ул. Зеленая. д. 9, кв.3."
669;260025;"ФАП х. Сунженский";"Ставропольский край, Степновский район, х. Сунженский, ул. Мира, д. 11"
670;260025;"ФАП с. Зеленая Роща";"Ставропольский край, Степновский район, с. Зеленая Роща, пер. Школьный, д. 5"
671;260025;"ФАП х. Восточный";"Ставропольский край, Степновский район, х. Восточный, ул. Мира, д. 29"
672;260025;"ФАП х. Новоникольский";"Ставропольский край, Степновский район, х. Новоникольский,  ул. Центральная, д. 76"
673;260025;"ФАП х. Ровный";"Ставропольский край, Степновский район, х. Ровный, ул. Артизианская, д. 1/4"
674;260025;"ФАП х. Северный";"Ставропольский край, Степновский район, х. Северный, ул.Октябрьская, д. 9/2"
675;260025;"ФАП с. Озерное";"Ставропольский край, Степновский район, с. Озерное, ул. Мира, д. 25/1"
676;260025;"ФАП с. Никольское";"Ставропольский край, Степновский район, с. Никольское, ул. Шоссейная.  д. 29"
82;260026;"ГБУЗ СК ""Труновская ЦРБ""";"Ставропольский край, Труновский район, с. Донское, ул. Солнечная, д. 26"
83;260026;"Поликлиника с.Донское";"Ставропольский край, Труновский район, с. Донское, ул. Солнечная, д. 26"
84;260026;"Участковая больница с.Безопасное";"Ставропольский край, Труновский район, с .Безопасное, ул. Комарова, д. 76"
85;260026;"Амбулатория с.Труновское";"Ставропольский край, Труновский район, с. Труновское, ул. Ленина, д. 21"
86;260026;"Амбулатория с.Подлесное";"Ставропольский край, Труновский район, с. Подлесное, ул. Ленина, д. 87"
87;260026;"Амбулатория п. имени Кирова";"Ставропольский край, Труновский район, п. имени Кирова, ул. Комарова, д. 14"
88;260026;"ФАП с.Ключевское";"Ставропольский край, Труновский район, с. Ключевское, ул. Ленина, д. 28а"
89;260026;"ФАП с.Донское";"Ставропольский край, Труновский район, с. Донское, х. Невдахин, д. 65"
687;260027;"ФАП п.Новорагулинский";"Ставропольский край, Туркменский район, п. Новорагулинский,  ул. Рабочая, д 14"
688;260027;"ФАП п. Поперечный";"Ставропольский край, Туркменский район, п. Поперечный ,  ул. Набережная, д. 17"
689;260027;"ФАП а. Сабан - Антуста";"Ставропольский край, Туркменский район, а. Сабан - Антуста,  ул. Мира, д. 57"
690;260027;"ФАП п.Таврический";"Ставропольский край, Туркменский район, п. Таврический,  ул. Победы, д. 62"
691;260027;"ФАП п.Троицкий";"Ставропольский край, Туркменский район, п. Троицкий,  ул. Западная, д. 13"
692;260027;"ФАП а. Шарахалсун";"Ставропольский край, Туркменский район, а. Шарахалсун,  ул. Краснознаменская, д. 92А"
693;260027;"ФАП а. Чур";"Ставропольский край, Туркменский район, а. Чур, ул. 8 Марта, д. 2б"
694;260027;"ФАП п. Ясный";"Ставропольский край, Туркменский район, п. Ясный, ул. Ставропольская, д. 8"
52;260021;"МБУЗ ПЦРБ";"Ставропольский край, Петровский район, г. Светлоград,  проспект генерала Воробьева, д. 1"
53;260021;"Поликлиника, г. Светлоград";"Ставропольский край, Петровский район, г. Светлоград, ул. Калинина, д. 67"
55;260021;"Поликлиника г. Светлоград";"Ставропольский край, Петровский район, г. Светлоград, ул. Красная, д. 44"
56;260021;"Участковая больница, с. Благодатное";"Ставропольский край, Петровский район, с. Благодатное, ул. Побережная, д. 2"
57;260021;"Участковая больница с. Высоцкое";"Ставропольский край, Петровский район, с. Высоцкое, ул. Советская, д. 20"
58;260021;"Участковая больница, с. Гофицкое";"Ставропольский край, Петровский район, с. Гофицкое, ул. Советская, д. 22"
59;260021;"Участковая больница с. Константиновское";"Ставропольский край, Петровский район, с. Константиновское, пер. Больничный, д. 2"
60;260021;"Участковая больница с. Николина Балка";"Ставропольский край, Петровский район, с. Николина Балка, ул. Шоссейная, д. 9"
555;260022;"Участковая больница с. Винсады";"Ставропольский край, Предгорный район, с. Винсады, ул. Ленина, д. 21а"
556;260022;"Участковая больница п. Пятигорский";"Ставропольский край, Предгорный район, п. Пятигорский, ул. Красноармейская, д. 25"
557;260022;"Участковая больница ст. Суворовская";"Ставропольский край, ст. Суворовская, ул. Советская, д. 1"
558;260022;"Участковая больница с. Юца";"Ставропольский край, Предгорный район, с. Юца, ул. Луценеко, д. 118"
559;260022;"Участковая больница п. Ясная Поляна";"Ставропольский край, Предгорный район, п. Ясная Поляна, ул.  Спортивная, д. 11"
560;260022;"Амбулатория п. Нежинский";"Ставропольский край, Предгорный район, п. Нежинский"
561;260022;"Амбулатория с. Новоблагодарное";"Ставропольский край, Предгорный район, с. Новоблагодарное, ул. Ленина, д. 54"
562;260022;"Амбулатория п. Подкумок";"Ставропольский край, Предгорный район, п. Подкумок, ул. Ессентукская, д. 64"
563;260022;"Амбулатория с. Этока";"Ставропольский край, Предгорный район, с. Этока, ул. 50 лет Октября, д. 142а"
564;260022;"ФАП п. Горный";"Ставропольский край, Предгорный район, п. Горный, ул. Северная, д. 5а"
565;260022;"ФАП  п.им.Чкалова";"Ставропольский край, Предгорный район, п. им.Чкалова, ул. Волочаевская, д. 5"
566;260022;"ФАП п. Санамер";"Ставропольский край, Предгорный район, п. Санамер, ул. Полевая, д. 28/2"
567;260022;"ФАП п. Железноводский";"Ставропольский край, Предгорный район, п. Железноводский, ул. Юбилейная, д. 2г"
568;260022;"ФАП х. Быкогорка";"Ставропольский край, Предгорный район, х. Быкогорка, ул. Калинина, д. 22"
569;260022;"ФАП п. Урожайный";"Ставропольский край, Предгорный район, п. Урожайный, ул. Ленина, д. 11А"
570;260022;"ФАП п. Верхнетамбуканский";"Ставропольский край, Предгорный район, п. Верхнетамбуканский, ул. Зеленая 2"
571;260022;"ФАП п. Нижнеэтокский";"Ставропольский край, Предгорный район, п. Нижнеэтокский, ул. Шоссейная"
572;260022;"ФАП п. Родниковый";"Ставропольский край, Предгорный район, п. Родниковый, ул. Подгорная, д. 6"
573;260022;"ФАП с. Свобода";"Ставропольский край, Предгорный район, с. Свобода, ул. Гагарина, д. 103"
574;260022;"ФАП с.Садовое";"Ставропольский край, Предгорный район, с. Садовое, ул. Мира, д. 144"
575;260022;"ФАП с. Юца";"Ставропольский край, Предгорный район, с. Юца, ул. Речная, д. 2"
576;260022;"ФАП х. Тамбукан";"Ставропольский край, Предгорный район, х. Тамбукан, ул. Кирова, д. 16В"
577;260022;"ФАП х. Калаборка";"Ставропольский край, Предгорный район, х. Калаборка, ул. Шоссеная, д. 22а"
578;260022;"ФАП п. Мирный";"Ставропольский край, Предгорный район, п. Мирный, ул. Совхозная, д. 5"
579;260022;"ФАП п. Левоберезовский";"Ставропольский край, Предгорный район, п. Левоберезовский, д. 41"
580;260022;"ФАП п. Подкумок";"Ставропольский край, Предгорный район, п. Подкумок, ул. Тепличная, д. 9/1"
581;260022;"ФАП п. Верхнеподкумский";"Ставропольский край, Предгорный район, п. Верхнеподкумский, ул. Полевая, д. 5/4"
582;260023;"ГБУЗ СК ""Стоматологическая поликлиника Предгорного района""";"Ставропольский край, Предгорный  район, ст. Ессентукская, ул. Подгорная, д. 33"
600;260024;"ФАП п. Михайловка";"Ставропольский край, Советский район, п. Михайловка, Почтовый пер., д. 1"
601;260024;"ФАП п. Селивановка ";"Ставропольский край, Советский район, п. Селивановка, ул. Шоссейная, д. 9"
602;260024;"ФАП х. Кононов";"Ставропольский край, Советский район, х. Кононов,ул. Школьная, д. 22"
603;260024;"ФАП х. Примерный ";"Ставропольский край, Советский район, х. Примерный, ул. Артезианская,  д. 10"
13307;260024;"Отделение скорой помощи";"Ставропольский край, Советский район, г. Зеленокумск, пл. Ленина, д. 13"
81;260025;"МБУЗ "" Степновская ЦРБ""";"Ставропольский край, Степновский район, с. Степное, ул. Додонова,  д. 22а"
661;260025;"Участковая больница с. Варениковское";"Ставропольский край, Степновский район, с. Варениковское, ул. Молодежная, д. 7"
662;260025;"Участковая больница с.Верхнестепное";"Ставропольский край, п. Верхнестепной, ул. Широкая, д. 30"
663;260025;"Участковая больница с.Соломенское";"Ставропольский край, Степновский район, с. Соломенское, ул. Почтовая, д. 20"
664;260025;"Участковая больница с. Иргаклы";"Ставропольский край, Степновский район, с. Иргаклы, ул. Колхозная, д. 52"
90;260026;"ФАП п.Сухой Лог";"Ставропольский край, Труновский район, п. Сухой Лог, ул. Спортивная, д. 2"
91;260026;"ФАП п.Нижняя Терновка";"Ставропольский край, Труновский район, п. Нижняя Терновка, ул. Советская, д. 5"
92;260026;"ФАП п.Новотерновский";"Ставропольский край, Труновский район, п. Новотерновский, ул. З.Космодемьянской, д. 12"
93;260026;"ФАП п.Правоегорлыкский";"Ставропольский край, Труновский район, п. Правоегорлыкский, ул. Советская, д. 7"
94;260026;"ФАП с.Новая Кугульта";"Ставропольский край, Труновский район, с. Новая Кугульта, ул. Гагарина, д. 7"
2;260027;"МБУЗ ""Туркменская ЦРБ"" ";"Ставропольский край, Туркменский район, с. Летняя Ставка,  ул. Больничная, д. 5"
3;260027;"Участковая больница с. Казгулак";"Ставропольский край, Туркменский район, с  Казгулак,  пер. Комсомольский , д. 2А"
677;260027;"Участковая больница с. Малые Ягуры";"Ставропольский край, Туркменский район, с. Малые Ягуры,  ул. Калинина, д. 86"
678;260027;"Участковая больница с. Камбулат";"Ставропольский край, Туркменский район, с. Камбулат ,  пл. Свободы, д. 29"
679;260027;"Участковая больница с. Кучерла";"Ставропольский край, Туркменский район, с. Кучерла,  ул. Садовая, д. 18"
680;260027;"Участковая больница с. Красный Маныч";"Ставропольский край, Туркменский район, с. Красный Маныч,  ул. Трудовая, д. 7"
681;260027;"Амбулатория с. Кендже- Кулак";"Ставропольский край, Туркменский район, с. Кендже Кулак,  ул. Садовая, д. 22"
682;260027;"ФАП п. Березовский";"Ставропольский край, Туркменский район, п. Березовский,  ул. Советская, д. 16/2"
683;260027;"ФАП с. Владимировка";"Ставропольский край, Туркменский район, с. Владимировка, ул. Ленина , д. 64"
684;260027;"ФАП п.Красная Поляна";"Ставропольский край, Туркменский район, п. Красная Поляна,  ул. Степная, д. 9"
685;260027;"ФАП а. Куликовы Копани";"Ставропольский край, Туркменский район, а. Куликовы Копани,  ул. Горького, д. 16"
686;260027;"ФАП п. Новокучерлинский";"Ставропольский край, Туркменский район, п. Новокучерлинский,  ул. Школьная, д. 12"
695;260028;"МБУЗ ""Шпаковская ЦРБ""";"Ставропольский край, Шпаковский район, г. Михайловск,  ул. Ленина, д. 1"
696;260028;"Участковая больница с. Сенгилеевское";"Ставропольский край, Шпаковский район, с. Сенгилеевское, ул.Пирогова, 43Б"
697;260028;"Участковая больница п. Цимлянский";"Ставропольский край, Шпаковский район, п. Цимлянский, ул. Советская, 12А"
698;260028;"Участковая больница ст.Темнолесская";"Ставропольский край, Шпаковский район, ст.Темнолесская, ул. Центральная, 143"
728;260029;"Стоматологический кабинет г.Михайловск,  ул. Ленина, д.1";"Ставропольский край, Шпаковский район, г. Михайловск,  ул. Ленина, д.1"
729;260029;"Стоматологический кабинет г.Михайловск, ул. Рабочая, д.3";"Ставропольский край, Шпаковский район, г. Михайловск,  ул. Рабочая, д.3"
730;260029;"Стоматологический кабинет с.Надежда, пер.Больничный,д1б";"Ставропольский край, Шпаковский район, с. Надежда,  пер. Больничный, д.1 б"
731;260029;"Стоматологический кабинет с.Пелагиада,  ул. Калинина, д.171";"Ставропольский край, Шпаковский район, с. Пелагиада,  ул. Калинина, д.171"
732;260029;"Стоматологический кабинет с.Дубовка, ул. Шоссейная, д.12";"Ставропольский край, Шпаковский район, с. Дубовка,  ул. Шоссейная, д.12"
733;260029;"Стоматологический кабинет с.Казинка,  ул. Ленина, д.71Б";"Ставропольский край, Шпаковский район, с. Казинка,  ул. Ленина, д. 71Б"
734;260029;"Стоматологический кабинет ст.Темнолесская,  ул. Центральная, д.143";"Ставропольский край, Шпаковский район, ст. Темнолесская,  ул. Центральная, д. 143"
735;260029;"Стоматологический кабинет с.Сенгилеевское,  ул. Пирогова, д.43 б";"Ставропольский край, Шпаковский район, с. Сенгилеевское,  ул. Пирогова, д. 43 б"
736;260029;"Стоматологический кабинет с.Верхнерусское,  ул. Юбилейная, д.16";"Ставропольский край, Шпаковский район, с. Верхнерусское,  ул. Юбилейная, д. 16"
737;260029;"Стоматологический кабинет п. Цимлянский,  ул. Советская, д.12 а";"Ставропольский край, Шпаковский район, п. Цимлянский,  ул. Советская, д. 12 а"
738;260029;"Стоматологический кабинет г.Михайловск,  п. СНИИСХ, д.12";"Ставропольский край, Шпаковский район, г. Михайловск,  п. СНИИСХ, д. 12"
739;260029;"Стоматологический кабинет с.Татарка,  ул. Ленина, д.59";"Ставропольский край, Шпаковский район, с. Татарка,  ул. Ленина, д. 59"
740;260029;"Стоматологический кабинет х.Демино,  пер. Студенческий, д.1";"Ставропольский край, Шпаковский район, х.Демино,  пер. Студенческий, д. 1"
741;260029;"Стоматологический кабинет ст.Новомарьевская,  ул. Свердлова, д.46";"Ставропольский край, Шпаковский район, ст. Новомарьевская,  ул. Свердлова, д. 46"
742;260029;"Стоматологический кабинет с.Пелагиада,  ул. Калинина, д.171";"Ставропольский край, Шпаковский район, с. Пелагиада,  ул. Калинина, д.171"
743;260029;"Стоматологический кабинет г.Михайловск,  ул. Октябрьская, д.318";"Ставропольский край, Шпаковский район, г. Михайловск,  ул. Октябрьская, д. 318"
744;260029;"Стоматологический кабинет г.Михайловск,  ул. Гагарина, д.79";"Ставропольский край, Шпаковский район, г. Михайловск,  ул. Гагарина, д. 79"
745;260029;"Стоматологический кабинет г.Михайловск,  ул. Пушкина, д.51";"Ставропольский край, Шпаковский район, г. Михайловск,  ул. Пушкина, д. 51"
746;260029;"Стоматологический кабинет г.Михайловск,  ул. Войкова, д.567/4";"Ставропольский край, Шпаковский район, г. Михайловск,  ул. Войкова, д. 567/4"
747;260029;"Стоматологический кабинет с.Верхнерусское,  ул. Подгорная, д.154";"Ставропольский край, Шпаковский район, с. Верхнерусское,  ул. Подгорная, д. 154"
748;260029;"Стоматологический кабинет с.Пелагиада,  ул. Ленина, д.68";"Ставропольский край, Шпаковский район, с. Пелагиада,  ул. Ленина, д. 68"
749;260029;"Стоматологический кабинет г.Михайловск,  ул. Шпака, д.26";"Ставропольский край, Шпаковский район, г. Михайловск,  ул. Шпака, д.26"
148;260030;"Будённовская ЦРБ";"Ставропольский край, Буденновский район, г. Буденновск, 7  микрорайон"
149;260030;"Городская поликлиника г. Буденновск";"Ставропольский край, Буденновский район, г. Буденновск, 7  микрорайон"
150;260030;"Детская  поликлиника г. Буденновск";"Ставропольский край, Буденновский район, г. Буденновск, 3 микрорайон, д. 11"
151;260030;"Участковая больница с.Архангельского";"Ставропольский край, Буденновский район, с. Архангельское ,  ул. Совхозная, д. 2."
152;260030;"Участковая больница с.Покойное";"Ставропольский край, Буденновский район, с. Покойное,  ул Столбовая, д. 51"
153;260030;"Амбулатория с. Прасковея ";"Ставропольский край, Буденновский район, с. Прасковея,  ул . Борцов Революции, д. 32а"
154;260030;"Амбулатория с.Орловка";"Ставропольский край, Буденновский район, с. Орловка, ул. Ленина, д. 62"
266548;260030;"ЦО ""Прогресс""";"Ставропольский край, Буденновский район, г. Буденновск, улица Ленинская, д. 108"
266549;260030;"ГБОУ СПО РПК";"Ставропольский край, Буденновский район, г. Буденновский, микрорайон 8"
173;260031;"Кожно-венерологический диспансер";"Ставропольский край, г. Буденновск, ул. Октябрьская,  д. 4"
45;260035;"ФАП пос. Приэтокский";"Ставропольский край, Георгиевский район, пос. Приэтокский, ул. Чкалова,  д. 51"
46;260035;"ФАП  пос. Крутоярский";"Ставропольский край, Георгиевский район, пос. Крутоярский, ул. Широкая,  д. 12"
47;260035;"ФАП  пос. Падинский";"Ставропольский край, Георгиевский район, пос. Падинский, ул. 40 лет Победы,  д. 13"
48;260035;"ФАП  с. Ульяновка";"Ставропольский край, Георгиевский район, с. Ульяновка, ул. Павлова,  д. 49"
159;260030;"Амбулатория п. Терек";"Ставропольский край, Буденновский район, п. Терек, ул. Школьная, д. 20"
160;260030;"Амбулатория с. Преображенское";"Ставропольский край, Буденновский район, с. Преображенское,  ул. Советская, д. 67"
161;260030;"Амбулатория с. Томузловское";"Ставропольский край, Буденновский район, с. Томузловское,  ул. Ленина,  д. 110"
162;260030;"Амбулатория с .Стародубское";"Ставропольский край, Буденновский район, с. Стародубское,  ул Шевченко, д. 30"
163;260030;"ФАП  с. Архиповский";"Ставропольский край, Буденновский район, с. Архиповский, ул. Советская, д. 150"
164;260030;"ФАП с. Добровольное";"Ставропольский край, Буденновский район, с. Добровольное,  ул. Октябрьская, д. 14"
165;260030;"ФАП п. Катасон";"Ставропольский край, Буденновский район, п. Катасон,  ул. Совхозная,  д. 53."
166;260030;"ФАП п. Полыновский";"Ставропольский край, Буденновский район, п. Полыновский,  ул. Октябрьская, д. 25/1"
167;260030;"ФАП с. Толстово-Васюковское";"Ставропольский край, Буденновская район, с. Толстово -Васюковское,  ул. Спортивная,  д. 1"
168;260030;"ФАП п. Виноградный";"Ставропольский край, Буденновский район, п. Виноградный,  ул. Юбилейная, д. 1"
169;260030;"ФАП п. Доброжеланный";"Ставропольский край, Буденновский район, п. Доброжеланный,  ул. Ленина, д. 33"
170;260030;"ФАП п.Чкаловский";"Ставропольский край, Буденновский район, п. Чкаловский,  ул. Пролетарская,  д. 12/1"
171;260030;"ФАП п. Херсонский";"Ставропольский край, Буденновский район, п. Херсонский,  ул. Октябрьская, д. 124/2"
172;260030;"ФАП п. Плаксейка";"Ставропольский край, Буденновский район, п. Плаксейка,  ул. Школьная,  д. 15 а"
13308;260030;"Стоматологическая поликлиника";"Ставропольский край, Буденновский район, г. Буденновск, ул. Прикумская, д. 18"
174;260031;"Консультативно-диагностическое отделение";"Ставропольский край, г. Буденновск, микрорайон 1, д. 18"
13309;260031;"ГБУЗ СК ""КРАЕВОЙ ЦЕНТР СВМП N1""";"Ставропольский край, г. Буденновск, проспект Калинина, д. 2"
616;260032;"Госпиталь (на 150 коек г. Буденновск) 1602 ОВКГ МО РФ";"Ставропольский край, г. Буденновск, мк. район Северный"
751;260033;"Буденновск-Медсанчасть-Ставролен";null
752;260034;"Александрийская УБ";null
32;260035;"МБУЗ ""НРБ""";"Ставропольский край, Георгиевский район, ст. Незлобная, ул. Базарная, д. 30"
33;260035;"Участковая больница ст. Александрийская";"Ставропольский край, Георгиевский район, ст. Александрийская, ул. Урицкого,  д. 23"
34;260035;"Амбулатория ст. Лысогорская";"Ставропольский край, Георгиевский район, ст. Лысогорская, ул. Ленина,  д. 190"
35;260035;"Амбулатория с. Краснокумское";"Ставропольский край, Георгиевский район, с. Краснокумское, ул. Кирова,  д. 33, 33 б, 35"
36;260035;"Амбулатория с. Обильное";"Ставропольский край, Георгиевский район, с. Обильное, ул. Гоголя,  д. 43"
37;260035;"Амбулатория ст. Подгорная";"Ставропольский край, Георгиевский район, ст. Подгорная, ул. Ленина,  д. 57"
38;260035;"Амбулатория  пос. Новоульяновский";"Ставропольский край, Георгиевский район, пос. Новоульяновский, ул. Школьная,  д. 18"
39;260035;"Амбулатория с. Новозаведенное";"Ставропольский край, Георгиевский район, с. Новозаведенное, ул. Школьная,  д. 31"
40;260035;"Амбулатория пос. Балковский";"Ставропольский край, Георгиевский район, пос. Балковский, ул. Школьная,  д. 2"
41;260035;"Амбулатория пос. Шаумянский";"Ставропольский край, Георгиевский район, пос. Шаумянский, пер. Ручейный,  д. 9, д. 13"
42;260035;"Амбулатория ст. Урухская";"Ставропольский край, Георгиевский район, ст. Урухская, ул. Пионерская,  д. 49"
43;260035;"Амбулатория ст. Георгиевская";"Ставропольский край, Георгиевский район, ст. Георгиевская, ул. Партизанская,  д. 32а"
44;260035;"Амбулатория пос. Новый";"Ставропольский край, Георгиевский район, пос. Новый, ул. Ахметская,  д. 11"
28;260036;"ГБУЗ СК ""Георгиевская ГДП""";"Ставропольский край, г. Георгиевск, ул. Мира, д. 9"
300;260042;"ГБУЗ СК ""Ессентукская ЦГБ""";"Ставропольский край, г. Ессентуки, ул. Октябрьская, д. 464"
301;260043;"ГБУЗ СК ""Родильный дом"" г.Ессентуки";"Ставропольский край, г. Ессентуки, ул. Октябрьская, д. 460"
302;260044;"ГБУЗ СК ""Стоматологическая поликлиника"" г. Ессентуки";"Ставропольский край, г. Ессентуки, ул. Интернациональная, д. 39"
298;260045;"ГБУЗ СК ""Городская поликлиника "" г. Ессентуки";"Ставропольский край, г. Ессентуки, ул. Кисловодская, д. 26а"
219;260046;"ГБУЗ СК ""Городская больница"" г. Железноводска";"Ставропольский край, г. Железноводск, ул. Чапаева, д. 5"
222;260049;"ГБУЗ СК ""Стоматологическая поликлиника"" г. Железноводска";"Ставропольский край, г. Железноводск, п. Иноземцево, ул. Шоссейная, д. 211А."
13317;260049;"Стоматологический кабинет (п. Иноземцево, ул. 8 Марта, д. 3)";"Ставропольский край, г. Железноводск, п. Иноземцево, ул. 8 Марта, д. 3"
13318;260049;"Стоматологический кабинет (ул. К. Маркса, д. 14)";"Ставропольский край, г. Железноводск, ул. К. Маркса, д. 14"
25;260050;"ГБУЗ СК  ""Городская поликлиника N 1"" г.Кисловодска";"Ставропольский край, г. Кисловодск, пр. Первомайский, д.10"
26;260051;"ГБУЗ СК ""Родильный дом"" г. Кисловодска";"Ставропольский край, г. Кисловодск, ул. Кутузова, д. 48а"
24;260052;"ГБУЗ СК ""Кисловодская ЦГБ""";"Ставропольский край, г. Кисловодск, ул. Кутузова, д.127 и ул. Дводненко, д. 21 /переулок. Дачный, д. 1"
22;260053;"ГБУЗ СК ""ДГБ"" г. Кисловодска";"Ставропольский край, г. Кисловодск , ул. Кутузова, д.46  и ул.Чайковского д. 32"
753;260057;"Минераловодский роддом";"Ставропольский край, г. Минеральные воды, пер. Февральский,  д. 21"
178;260058;"ЦРБ г. Минеральные Воды";"Ставропольский край, Минераловодский район, г. Минеральные Воды, ул. Кисловодская, д. 59"
179;260058;"Городская поликлиника г. Минеральные Воды";"Ставропольский край, Минераловодский район, г. Минеральные Воды, ул. Горская, д. 76"
180;260058;"Детская городская поликлиника г. Минеральные Воды";"Ставропольский край, Минераловодский район, г. Минеральные Воды, пер. Февральский, д. 19"
181;260058;"Стоматологическая поликлиника г. Минеральные Воды";"Ставропольский край, Минераловодский район, г. Минеральные Воды, ул. 50 лет Октября, д. 67"
182;260058;"Участковая больница с. Прикумское";"Ставропольский край, Минераловодский район, с. Прикумское, ул. Ленина, д. 49"
183;260058;"Участковая больница с. Гражданское ";"Ставропольский край, Минераловодский район, с. Гражданское, ул. Школьная, д. 40"
184;260058;"Участковая больница с. Марьины Колодцы";"Ставропольский край, Минераловодский район, с. Марьины Колодцы, ул. Зеленая, д. 22"
185;260058;"Участковая больница с. Побегайловка";"Ставропольский край, Минераловодский район, с. Побегайловка, ул. Школьная, д. 7"
186;260058;"Участковая больница с. Нагутское ";"Ставропольский край, Минераловодский район, с. Нагутское, ул. Пролетарская, д. 63"
187;260058;"Амбулатория п. Новотерский";"Ставропольский край, Минераловодский район, п. Новотерский, ул. Мира, д. 5"
188;260058;"Амбулатория п. Анджиевский";"Ставропольский край, Минераловодский район, п. Анджиевский, ул. Исакова, д. 11"
189;260058;"Амбулатория п. Первомайский";"Ставропольский край, Минераловодский район, п. Первомайский, ул. Стеклозаводская, д. 4"
190;260058;"Амбулатория с. Левокумка";"Ставропольский край, Минераловодский район, с. Левокумка, ул. Мостовая, д. 2"
191;260058;"Амбулатория с. Канглы";"Ставропольский край, Минераловодский район, с. Канглы, ул. М. Джалиля, д. 68"
29;260037;"ГАУЗ СК ""ГСП""";"Ставропольский край, г. Георгиевск, ул. Лермонтова, д. 59"
31;260038;"ГБУЗ СК ""Георгиевская центральная поликлиника""";"Ставропольский край, г. Георгиевск, ул. Октябрьская, д. 56"
13312;260038;"МБУЗ ""ГЦП""";"Ставропольский край, г. Георгиевск, ул. Калинина, д. 129-131"
30;260039;"ГБУЗ СК ""Георгиевская ЦГБ""";"Ставропольский край, г. Георгиевск, ул. Филатова, д. 3"
297;260040;"ГБУЗ СК ""Инфекционная больница"" г.Ессентуки";"Ставропольский край, г. Ессентуки, ул. Анджиевского, д. 47"
299;260041;"ГБУЗ СК ""Детская больница"" г.Ессентуки";"Ставропольский край, г. Ессентуки, ул. К. Маркса, д. 34"
220;260047;"ГАУЗ СК ""Городская поликлиника № 1"" г. Железноводска";"Ставропольский край, г. Железноводск, ул. Чапаева, д. 29"
221;260048;"ГБУЗ СК ""Городская поликлиника № 2"" г.Железноводска";"Ставропольский край, г. Железноводск, пос. Иноземцево,  ул. 8 Марта, д. 5А"
13316;260048;"ФАП п. Капельница";"Ставропольский край, г. Железноводск, п. Капельница, ул. Зори Машука, д. 7"
13323;260048;"дневной стационар ";"Ставропольский край, г. Железноводск, п. Иноземцево, ул. Промышленная, д. 9"
27;260054;"ГБУЗ СК ""Стоматологическая поликлиника"" г. Кисловодска";"Ставропольский край, г. Кисловодск, Курортный бульвар, д. 7 и ул, Широкая д. 24"
23;260055;"ГБУЗ  СК ""КСИБ""";"Ставропольский край, г. Кисловодск, ул. Линейная, д. 70"
251;260056;"ФГБУЗ КБ№ 101 ФМБА России";"Ставропольский край, г. Лермонтов, ул. Ленина, д. 26"
252;260056;"Детская поликлиника";"Ставропольский край, г. Лермонтов, ул. Решетника, д. 6"
253;260056;"Женская консультация";"Ставропольский край, г. Лермонтов, ул. Решетника, д. 6"
192;260058;"Амбулатория с. Розовка";"Ставропольский край, Минераловодский район, с. Розовка, ул. Апанасенко, д. 88"
193;260058;"Амбулатория с. Греческое";"Ставропольский край, Минераловодский район, с. Греческое, ул. Мира, д. 34"
194;260058;"ФАП с. Нижняя Александровка";"Ставропольский край, Минераловодский район, с. Нижняя Александровка, ул. Веселая, д. 72"
195;260058;"ФАП х. Лысогорский";"Ставропольский край, Минераловодский район, х. Лысогорский, ул. Мира, д. 126"
196;260058;"ФАП х. Сухая Падина";"Ставропольский край, Минераловодский район, х. Сухая Падина, ул. Сухопадинская,  д. 61"
197;260058;"ФАП х. Старотарский";"Ставропольский край, Минераловодский район, х. Старотарский, ул. Дорожная, д. 9"
198;260058;"ФАП с. Дунаевка";"Ставропольский край, Минераловодский район, с. Дунаевка, ул. Молодежная, д. 10"
199;260058;"ФАП с. Успеновка";"Ставропольский край, Минераловодский район, с. Успеновка, ул. Северная, д. 1"
200;260058;"ФАП с. Долина";"Ставропольский край, Минераловодский район, с. Долина, ул. Юбилейная, д. 4/2"
201;260058;"ФАП п. Мирный";"Ставропольский край, Минераловодский район, п. Мирный, ул. Восточная, д. 16"
202;260058;"ФАП с. Сунжа";"Ставропольский край, Минераловодский район, с. Сунжа, ул. Клубная, д. 27"
203;260058;"ФАП п. Фруктовый";"Ставропольский край, Минераловодский район, п. Фруктовый, ул. Королева, д. 3/3"
204;260058;"ФАП п. Нижне - Балковский";"Ставропольский край, Минераловодский район, п. Нижне - Балковский, ул. Грибоедова, д. 2"
205;260058;"ФАП х.Садовый";"Ставропольский край, Минераловодский район, х. Садовый, ул. Ленина, д. 24"
206;260058;"ФАП х. Славянский";"Ставропольский край, Минераловодский район, х. Славянский, ул. Клубная, д. 7"
207;260058;"ФАП п. Загорский";"Ставропольский край, Минераловодский район, п. Загорский, д. 8/11"
208;260058;"ФАП п. Кумской";"Ставропольский край, Минераловодский район, п. Кумской, ул. 70 лет Октября, д. 7"
209;260058;"ФАП п. Ленинский";"Ставропольский край, Минераловодский район, п. Ленинский, ул. Ленина, д. 55"
210;260058;"ФАП п. Бородыновка";"Ставропольский край, Минераловодский район, п. Бородыновка, ул. Железнодорожная, д. 4"
211;260058;"ФАП с. Гражданское";"Ставропольский край, Минераловодский район, с. Гражданское, ул. Пролетарская, д. 17/2"
212;260058;"ФАП с. Ульяновка";"Ставропольский край, Минераловодский район, с. Ульяновка, ул. Ленина, д. 68"
213;260058;"ФАП х. Перевальный";"Ставропольский край, Минераловодский район, х. Перевальный, ул. Горбаня, д. 22"
214;260058;"Филиал поликлиники х. Красный Пахарь";"Ставропольский край, Минераловодский район, х. Красный Пахарь, ул. 9 мая, д. 7"
13320;260058;"Станция скорой медицинской помощи";"Ставропольский край, Минераловодский район, г. Минеральные Воды, ул. Гагарина, д. 67а"
215;260059;"НУЗ  ""Отделенческая клиническая больница  на ст.Минеральные Воды";"Ставропольский край, Минераловодский р-он, г. Минеральные Воды, ул. Советская, д. 61"
216;260059;"Поликлиническое отделение №2";"Ставропольский край, Минераловодский р-он, г. Минеральные Воды, ул. Ленина, д. 22"
217;260060;"ОАО ""Международный аэропорт Минеральные Воды""";"Ставропольский край, г. Минеральные Воды, территория аэропорта"
218;260060;"МСЧ";"Ставропольский край, г. Минеральные Воды, территория авиаг.ка"
223;260061;"ГБУЗ СК ""Городская больница"" г. Невинномысск";"Ставропольский край, г. Невинномысск, ул. Павлова, д. 5"
224;260061;"Родильный дом";"Ставропольский край, г. Невинномысск, ул. Павлова, д. 3"
225;260061;"Инфекционное отделение";"Ставропольский край, г. Невинномысск, ул. Линейная, д. 3А"
754;260062;"Хирургическая клиника";null
227;260063;"ГБУЗ СК ""Городская больница № 2"" г. Невинномысска";"Ставропольский край, г. Невинномысск, переулок Клубный, д. 8"
232;260064;"ГБУЗ СК ""ГДБ"" г.Невинномысска";"Ставропольский край, г. Невинномысск, ул. Трудовая, д. 84"
229;260065;"Терапевтическое отделение №1";"Ставропольский край, г. Невинномысск, ул. Степная, д. 10"
