﻿KODSMO;KODTER;NAMSMO;id
22001;01000;АЛТАЙСКИЙ ФИЛИАЛ ООО "СМК РЕСО-МЕД";NULL
22003;01000;ФИЛИАЛ "АЛТАЙСКИЙ" ЗАО "СГ"СПАССКИЕ ВОРОТА-М";NULL
22006;01000;ФИЛИАЛ ООО "РГС-МЕДИЦИНА" - "РОСГОССТРАХ-АЛТАЙ-МЕДИЦИНА";NULL
22008;01000;ООО СК "ИНТЕРМЕДСЕРВИС-СИБИРЬ";NULL
23207;03000;ОБЩЕСТВО С ОГРАНИЧЕННОЙ ОТВЕСТВЕННОСТЬЮ "АЛЬФАСТРАХОВАНИЕ-ОМС";NULL
23307;03000;ООО СМО "СИБИРЬ";NULL
23407;03000;ООО "РГС-МЕДИЦИНА";NULL
23507;03000;ЗАО МСК "СОЛИДАРНОСТЬ ДЛЯ ЖИЗНИ";NULL
23607;03000;ОАО "СТРАХОВАЯ КОМПАНИЯ "СОГАЗ-МЕД";NULL
23707;03000;ОАО "МСК "УРАЛСИБ";NULL
28004;10000;ОАО "Страховая компания СОГАЗ-Мед";NULL
23807;03000;ООО "МСК-МЕД";NULL
23907;03000;ООО "СК "ИНГОССТРАХ-М";NULL
24001;04000;ЗАО МСО "НАДЕЖДА";NULL
24002;04000;ООО МСК "МЕДИКА-ВОСТОК";NULL
24004;04000;ФИЛИАЛ "КРАСНОЯРСК-РОСНО-МС" ОАО "РОСНО-МС";NULL
24005;04000;КРАСНОЯРСКИЙ ФИЛИАЛ ООО СК "КАПИТАЛ-ПОЛИС МЕД";NULL
24007;04000;ФИЛИАЛ ЗАО "МАКС-М" В Г.ЗЕЛЕНОГОРСКЕ;NULL
24008;04000;ФИЛИАЛ ООО "СК "ИНГОССТРАХ-М" В Г.КРАСНОЯРСКЕ;NULL
24009;04000;Филиал ЗАО СМК "Сибирский Спас-Мед" в г.Красноярске;NULL
24010;04000;ОАО СК "СОГАЗ-Мед";NULL
25011;05000;ООО СМО "ВОСТОЧНО-СТРАХОВОЙ АЛЬЯНС";NULL
25012;05000;ООО "ВСК -МИЛОСЕРДИЕ" ДАЛЬНЕВОСТОЧНЫЙ ФИЛИАЛ;NULL
25014;05000;ОАО "СТРАХОВАЯ КОМПАНИЯ "СОГАЗ-МЕД";NULL
25016;05000;ФИЛИАЛ ВЛАДИВОСТОКСКИЙ "ЗАО СГ "СПАССКИЕ ВОРОТА-М";NULL
25017;05000;ФИЛИАЛ "ПРИМОРЬЕ-РОСНО-МС" ОАО "РОСНО-МС";NULL
26002;07000;ЗАО ВТБ Медицинское страхование;2
26005;07000;ООО "СК "ИНГОССТРАХ-М";1
27001;08000;ООО "СК"ДАЛЬ-РОСМЕД";NULL
27002;08000;ФИЛИАЛ "ХАБАРОВСК-РОСНО-МС"ОАО "РОСНО-МС";NULL
27003;08000;ФИЛИАЛ ООО "РГС-МЕДИЦИНА"-"РОСГОССТРАХ-ХАБАРОВСК-МЕДИЦИНА";NULL
27004;08000;ЗАО "СТРАХОВАЯ ГРУППА"СПАССКИЕ ВОРОТА-М"ФИЛИАЛ "ХАБАРОВСКИЙ";NULL
28001;10000;ЗАО "Страховая группа "Спасские ворота-М";NULL
28002;10000;ОАО "МСК "Дальмедстрах";NULL
29030;11000;Архангельский филиал ОАО "Страховая компания "СОГАЗ-Мед";NULL
29031;11000;Филиал ООО "РГС-Медицина"-Росгосстрах-Архангельск-Медицина";NULL
80001;11100;ООО "РГС-МЕДИЦИНА";NULL
30002;12000;АСТРАХАНСКИЙ ФИЛИАЛ ОАО "СТРАХОВАЯ КОМПАНИЯ "СОГАЗ-МЕД";NULL
30004;12000;ЗАО "МАКС-М";NULL
31001;14000;ЗАО "МАКС-М";NULL
31004;14000;ОАО "РОСНО-МС";NULL
32020;15000;БРЯНСКИЙ ФИЛИАЛ ООО "СК "ИНГОССТРАХ-М";NULL
32030;15000;БРЯНСКИЙ ФИЛИАЛ ОАО "РОСНО-МС";NULL
32040;15000;БРЯНСКИЙ ФИЛИАЛ ОАО "СТРАХОВАЯ КОМПАНИЯ "СОГАЗ-МЕД";NULL
32043;15000;БРЯНСКИЙ ФИЛИАЛ ООО СМО "СИБИРЬ";NULL
32055;15000;ООО "АЛЬФАСТРАХОВАНИЕ-ОМС" БРЯНСКИЙ ФИЛИАЛ "СИБИРЬ";NULL
33004;17000;ФИЛИАЛ ЗАО "МАКС-М" В Г.ВЛАДИМИРЕ;NULL
33006;17000;ФИЛИАЛ ЗАО "КАПИТАЛ МЕДИЦИНСКОЕ СТРАХОВАНИЕ" В Г.ВЛАДИМИРЕ;NULL
33007;17000;ФИЛИАЛ ООО "СК "ИНГОССТРАХ-М" В Г.ВЛАДИМИРЕ;NULL
34001;18000;ФИЛИАЛ ЗАО "КАПИТАЛ МЕДИЦИНСКОЕ СТРАХОВАНИЕ" В Г. ВОЛГОГРАДЕ;NULL
34002;18000;ВОЛГОГРАДСКИЙ ФИЛИАЛ ОАО <СТРАХОВАЯ КОМПАНИЯ <СОГАЗ - МЕД>;NULL
35001;19000;ОАО МСК "ШЕКСНА-М";NULL
35003;19000;ОАО "СТРАХОВАЯ КОМПАНИЯ "СОГАЗ-МЕД";NULL
36065;20000;ООО "МСК "ИНКО-МЕД";NULL
36071;20000;ОАО "СТРАХОВАЯ КОМПАНИЯ "СОГАЗ-МЕД";NULL
36079;20000;ОАО "РОСНО-МС";NULL
52001;22000;ФИЛИАЛ ООО"СК "ИНГОССТРАХ-М" В Г. Н.НОВГОРОДЕ;NULL
52002;22000;ФИЛИАЛ ЗАО "КАПИТАЛ МЕДИЦИНСКОЕ СТРАХОВАНИЕ" Г.Н.НОВГОРОД;NULL
52004;22000;НИЖЕГОРОДСКИЙ ФИЛИАЛ ОАО "РОСНО-МС";NULL
52005;22000;НИЖЕГОРОДСКИЙ ФИЛИАЛ ООО "СМК РЕСО-МЕД";NULL
37002;24000;ИВАНОВСКИЙ ФИЛИАЛ ОАО "СТРАХОВАЯ КОМПАНИЯ "СОГАЗ-МЕД";NULL
37004;24000;ФИЛИАЛ "ИВАНОВСКИЙ" ЗАО "СГ "СПАССКИЕ ВОРОТА-М";NULL
38001;25000;ОАО "МАСКИ";NULL
38003;25000;ФИЛИАЛ ЗАО МСК "СОЛИДАРНОСТЬ ДЛЯ ЖИЗНИ" В ИРКУТСКОЙ ОБЛАСТИ;NULL
38014;25000;ИРКУТСКИЙ ФИЛИАЛ ОАО "СТРАХОВАЯ КОМПАНИЯ"СОГАЗ-МЕД";NULL
38017;25000;ИРКУТСКИЙ ФИЛИАЛ ОАО "РОСНО-МС";NULL
38020;25000;ФИЛИАЛ ООО "СК "ИНГОССТРАХ-М" В Г.ИРКУТСКЕ;NULL
06050;26000;ФИЛИАЛ ЗАО "МАКС-М" В Г.НАЗРАНИ;NULL
39001;27000;ЗАО "СТРАХОВАЯ ГРУППА "СПАССКИЕ ВОРОТА-М" ФИЛИАЛ "КАЛИНИНГРАДСКИЙ";NULL
40001;29000;ОАО"РОСНО-МС";NULL
40002;29000;ЗАО"МАКС-М";NULL
39002;27000;КАЛИНИНГРАДСКИЙ ФИЛИАЛ ОАО "СТРАХОВАЯ КОМПАНИЯ "СОГАЗ-МЕД"";NULL
39003;27000;ФИЛИАЛ "КАЛИНИНГРАД-РОСНО-МС" ОАО "РОСНО-МС";NULL
39005;27000;ФИЛИАЛ ООО "РГС-МЕДИЦИНА"-"РОСГОССТРАХ-КАЛИНИНГРАД-МЕДИЦИНА";NULL
39006;27000;ЗАО "ОМСК";NULL
69001;28000;ООО"Страховая медицинская компания РЕСО-МЕД";NULL
69005;28000;ЗАО "МАКС-М";NULL
69007;28000;ЗАО"Страховая группа "Спасские ворота-М";NULL
69011;28000;ООО "РГС-Медицина";NULL
69013;28000;ООО "СК "Ингосстрах-М";NULL
69016;28000;ООО "АльфаСтрахование-ОМС";NULL
41001;30000;КАМЧАТСКИЙ ФИЛИАЛ ОАО "СТРАХОВАЯ КОМПАНИЯ "СОГАЗ-МЕД";NULL
41002;30000;ФИЛИАЛ ООО "СК "ДАЛЬ-РОСМЕД" В Г. ПЕТРОПАВЛОВСК-КАМЧАТСКИЙ;NULL
42001;32000;ООО СМО "СИБИРЬ";NULL
42002;32000;ООО "ЖСО-МЕДИЦИНА";NULL
42003;32000;ЗАО СМК "СИБИРСКИЙ СПАС-МЕД";NULL
42004;32000;ООО "СТРАХОВАЯ КОМПАНИЯ СДС-МЕДИЦИНА";NULL
42005;32000;ООО <СК <ИНГОССТРАХ-М>;NULL
42007;32000;ООО СМО  "ЦМС";NULL
42008;32000;ОАО МСК "УРАЛСИБ";NULL
42009;32000;ООО "АЛЬФАСТРАХОВАНИЕ-ОМС";NULL
43001;33000;ФИЛИАЛ "КИРОВ-РОСНО-МС" ОАО "РОСНО-МС";NULL
43005;33000;ФИЛИАЛ ЗАО "МАКС-М" В Г. КИРОВЕ;NULL
43006;33000;Ф-Л ООО "СК "ИНГОССТРАХ-М" В Г.КИРОВЕ;NULL
43011;33000;Ф-Л ООО "РГС-МЕДИЦИНА"-"РГС-КИРОВ-МЕДИЦИНА";NULL
63029;36000;Самарский филиал ОАО "РОСНО-МС";NULL
59015;57000;МАКС-М;NULL
44003;34000;Филиал ООО "РГС-Медицина" - "Росгосстрах - Кострома - Медицина";NULL
44010;34000;Филиал ЗАО МСК "Солидарность для жизни" в Костромской области;NULL
44011;34000;Филиал ЗАО "МАКС-М" в г. Костроме;NULL
63001;36000;ОАО СК "АСКОМЕД";NULL
63002;36000;САМАРСКИЙ ФИЛИАЛ ЗАО СК "СОГЛАСИЕ-М";NULL
63014;36000;ЗАО СК "АЛЬЯНС-МЕД";NULL
63018;36000;ЗАО "СК "АСТРО-ВОЛГА-МЕД";NULL
63023;36000;ФИЛИАЛ ЗАО "МАКС-М" В Г. САМАРЕ;NULL
63027;36000;Самарский филиал ОАО "МСК "УРАЛСИБ";NULL
63028;36000;ОАО "Страховая компания "СОГАЗ-Мед";NULL
45001;37000;Филиал СМК "АСТРАМЕД-МС" (ОАО) в г.Курган;NULL
45002;37000;Филиал ООО "РГС-Медицина"-"Росгосстрах-Курган-Медицина";NULL
45004;37000;ОАО "СТРАХОВАЯ КОМПАНИЯ"СОГАЗ-МЕД";NULL
46001;38000;ООО "РОСМЕДСТРАХ-К";NULL
46002;38000;КУРСКИЙ ФИЛИАЛ ОАО "РОСНО-МС";NULL
46003;38000;ООО "СК "ИНГОССТРАХ-М" ФИЛИАЛ В Г. КУРСКЕ;NULL
46004;38000;ФИЛИАЛ "КУРСКИЙ" ЗАО "СГ "СПАССКИЕ ВОРОТА-М";NULL
46007;38000;ОАО "СТРАХОВАЯ КОМПАНИЯ "СОГАЗ-МЕД";NULL
78001;40000;ЗАО "СМК АСК-МЕД";NULL
78003;40000;ОАО "ГСМК";NULL
78004;40000;САНКТ-ПЕТЕРБУРГСКИЙ ФИЛИАЛ ООО СК "КАПИТАЛ-ПОЛИС МЕД";NULL
78005;40000;ФИЛИАЛ ЗАО "МАКС-М" В Г. САНКТ-ПЕТЕРБУРГЕ;NULL
78006;40000;САНКТ-ПЕТЕРБУРГСКИЙ ФИЛИАЛ ООО "СМК РЕСО-МЕД";NULL
78007;40000;ФИЛИАЛ ООО "РГС-МЕДИЦИНА" - "РОСГОССТРАХ-САНКТ-ПЕТЕРБУРГ-МЕДИЦИНА";NULL
78008;40000;САНКТ-ПЕТЕРБУРГСКИЙ ФИЛИАЛ ОАО "РОСНО-МС";NULL
78010;40000;САНКТ-ПЕТЕРБУРГСКИЙ ФИЛИАЛ ОАО "СТРАХОВАЯ КОМПАНИЯ "СОГАЗ-МЕД";NULL
78012;40000;ЗАО "СК "АВЕСТА-МЕД";NULL
47001;41000;ЗАО "СМК АСК-МЕД";NULL
47023;41000;ОАО "ГСМК";NULL
47028;41000;ЗАО "СК "АВЕСТА-МЕД";NULL
47042;41000;ОАО "СК "СОГАЗ-МЕД";NULL
47043;41000;ООО "РГС-МЕДИЦИНА";NULL
47045;41000;ООО "СМК РЕСО-МЕД";NULL
48001;42000;ООО СМК "НОВОЛИПЕЦКАЯ";NULL
48002;42000;ООО "СК "КАСКО-МС";NULL
48004;42000;ФИЛИАЛ ООО "РГС-МЕДИЦИНА" - "РОСГОССТРАХ-ЛИПЕЦК-МЕДИЦИНА";NULL
49001;44000;ОАО МСК "АВЕ";NULL
49003;44000;ОАО "ГСМК "Сахамедстрах";NULL
49004;44000;ОАО "Страховая компания "СОГАЗ-Мед";NULL
49005;44000;ОАО МСК "Дальмедстрах";NULL
55044;45000;ОАО "Страховая компания "СОГАЗ-Мед";NULL
77001;45000;ООО МСО "ПАНАЦЕЯ" (МОСКОВСКИЙ ФИЛИАЛ);NULL
77002;45000;ОАО "МСК "УРАЛСИБ";NULL
77003;45000;ЗАО МСК "СОЛИДАРНОСТЬ ДЛЯ ЖИЗНИ";NULL
77004;45000;ЗАО "МАКС-М";NULL
77005;45000;ООО "МСК "МЕДСТРАХ";NULL
77006;45000;ЗАО "СГ "СПАССКИЕ ВОРОТА-М";NULL
77007;45000;ОАО "РОСНО-МС";NULL
77008;45000;ООО "СМК РЕСО-МЕД" (МОСКОВСКИЙ ФИЛИАЛ);NULL
77011;45000;ЗАО СК "СОГЛАСИЕ-М";NULL
77012;45000;ОАО "СТРАХОВАЯ КОМПАНИЯ "СОГАЗ-МЕД";NULL
77013;45000;ООО "СК "ИНГОССТРАХ-М";NULL
77015;45000;ООО "РГС-МЕДИЦИНА";NULL
50005;46000;ООО "СМК РЕСО-МЕД'';NULL
50006;46000;ЗАО "МАКС-М";NULL
50012;46000;ООО "МСК "МЕДСТРАХ";NULL
50018;46000;ЗАО СМК "МиБ";NULL
50023;46000;ОАО "МСК "УралСиб";NULL
50027;46000;ЗАО МСК "Солидарность для жизни";NULL
50028;46000;ОАО "РОСНО-МС";NULL
50046;46000;ОАО "Страховая компания "СОГАЗ-Мед";NULL
50049;46000;ООО "СК "ИНГОССТРАХ-М";NULL
50051;46000;ООО "РГС-Медицина";NULL
51014;47000;МУРМАНСКИЙ ФИЛИАЛ ОАО "СТРАХОВАЯ КОМПАНИЯ "СОГАЗ-МЕД";NULL
51017;47000;ФИЛИАЛ ООО "АЛЬФАСТРАХОВАНИЕ-МС" В Г. МУРМАНСК;NULL
51018;47000;МУРМАНСКИЙ ФИЛИАЛ ООО "АЛЬФАСТРАХОВАНИЕ-ОМС";NULL
53002;49000;НОВГОРОДСКИЙ ФИЛИАЛ ОАО "РОСНО-МС";NULL
53005;49000;НОВГОРОДСКИЙ ФИЛИАЛ ООО СМО "СИБИРЬ";NULL
53006;49000;Новгородский филиал ООО "АльфаСтрахование-ОМС";NULL
54001;50000;ООО "СМО "СИМАЗ-МЕД";NULL
54002;50000;ФИЛИАЛ "НОВОСИБИРСК-МЕДИЦИНА" ОАО "РОСНО-МС";NULL
54004;50000;ФИЛИАЛ ООО "СК "ИНГОССТРАХ-М" В Г. НОВОСИБИРСК;NULL
54005;50000;ОАО "МСК "УРАЛСИБ";NULL
55040;52000;ООО "МСК "АСКО-ЗАБОТА";NULL
55041;52000;ФИЛИАЛ ООО "РГС-МЕДИЦИНА" - "РОСГОССТРАХ-ОМСК-МЕДИЦИНА";NULL
55043;52000;ОМСКИЙ ФИЛИАЛ ОАО СМК "ЮГОРИЯ-МЕД";NULL
55046;52000;ОМСКИЙ ФИЛИАЛ ОАО "CК "РОСНО-МС";NULL
55047;52000;ОАО "МСК "УРАЛСИБ";NULL
56021;53000;ОРЕНБУРГСКИЙ ФИЛИАЛ ОАО "СТРАХОВАЯ КОМПАНИЯ "СОГАЗ-МЕД";NULL
56025;53000;ФИЛИАЛ "ОРЕНБУРГ - РОСНО - МС" ОАО "РОСНО - МС";NULL
56027;53000;ФИЛИАЛ ЗАО "КАПИТАЛ МЕДИЦИНСКОЕ СТРАХОВАНИЕ" В Г. ОРЕНБУРГЕ;NULL
56029;53000;ФИЛИАЛ ООО "СК "ИНГОССТРАХ-М" В Г.ОРЕНБУРГ;NULL
56032;53000;ФИЛИАЛ ЗАО "МАКС-М" В Г. ОРЕНБУРГЕ;NULL
57001;54000;ЗАО МСК "СОЛИДАРНОСТЬ ДЛЯ ЖИЗНИ";NULL
57002;54000;ОРЛОВСКИЙ ФИЛИАЛ ОАО "СТРАХОВАЯ КОМПАНИЯ "СОГАЗ-МЕД";NULL
57003;54000;ООО ''СМК РЕСО-МЕД'';NULL
84001;55000;Филиал "Байконур-РОСНО-МС" ОАО "РОСНО-МС";NULL
58003;56000;ФИЛИАЛ ЗАО "КАПИТАЛ МЕДИЦИНСКОЕ СТРАХОВАНИЕ" В Г.ПЕНЗЕ;NULL
58004;56000;ФИЛИАЛ ЗАО "МАКС-М" В Г.ПЕНЗЕ;NULL
58006;56000;ФИЛИАЛ ООО "РГС-МЕДИЦИНА"-"РОСГОССТРАХ-ПЕНЗА-МЕДИЦИНА";NULL
59016;57000;КАПИТАЛ МС;NULL
59018;57000;АСТРАМЕД-МС;NULL
59019;57000;СПАССКИЕ ВОРОТА-М;NULL
59020;57000;РГС-ПЕРМЬ-МЕДИЦИНА;NULL
59021;57000;РЕСО-МЕД;NULL
59024;57000;СПАСЕНИЕ;NULL
60001;58000;ПСКОВСКИЙ ФИЛИАЛ ЗАО "МАКС-М";NULL
61001;60000;ООО МСО "ПАНАЦЕЯ";NULL
61004;60000;ООО МСК "АССТРА";NULL
61013;60000;РОСТОВСКИЙ ФИЛИАЛ ЗАО "МАКС-М";NULL
61017;60000;РОСТОВСКИЙ ФИЛИАЛ ОАО "СК СОГАЗ-МЕД";NULL
61022;60000;ФИЛИАЛ ООО "РГС - МЕДИЦИНА";NULL
61023;60000;ООО "МСК "МАКСИМУС";NULL
61024;60000;ООО "АльфаСтрахование-ОМС" филиал "АсСтра";NULL
62001;61000;Рязанский филиал ЗАО "Капитал Медицинское страхование";NULL
62002;61000;Рязанский филиал ОАО "РОСНО-МС";NULL
62003;61000;Рязанский филиал ОАО "СК "СОГАЗ-Мед";NULL
62005;61000;OAО "УралСиб";NULL
62004;61000;ООО "МСК СТРАЖ";NULL
64005;63000;Филиал "Саратов-РОСНО-МС" ОАО "РОСНО-МС";NULL
64008;63000;Саратовский филиал ОАО "Страховая компания "СОГАЗ-Мед";NULL
64011;63000;Филиал ЗАО "Капитал Медицинское страхование" в г.Саратове;NULL
64014;63000;Филиал ЗАО "МАКС-М" в г.Саратове;NULL
64015;63000;Филиал ООО "РГС-Медицина"-"Росгосстрах-Саратов-Медицина";NULL
65001;64000;САХАЛИНСКИЙ ФИЛИАЛ ОАО "СК "СОГАЗ-МЕД";NULL
65002;64000;САХАЛИНСКИЙ ФИЛИАЛ ООО "СК "ДАЛЬ-РОСМЕД";NULL
66004;65000;СМК "АСТРАМЕД -МС" (ОАО);NULL
66013;65000;ООО СМК "УРАЛ-РЕЦЕПТ М";NULL
66062;65000;ООО СМК "УГМК-МЕДИЦИНА";NULL
66063;65000;Екатеринбургский филиал ОАО "СК "СОГАЗ-Мед";NULL
66064;65000;ЗАО "СМК АСК-Мед" филиал "Белая Башня-Мед";NULL
66070;65000;Филиал ООО "СК"Ингосстрах-М" в г.Екатеринбурге ";NULL
66071;65000;ЕФ ООО "СК "ВСК-Милосердие";NULL
66072;65000;Филиал ООО СМК "Астра-Металл" в Свердловской области;NULL
66074;65000;Филиал "Екатеринбург-РОСНО МС" ОАО "РОСНО-МС";NULL
66076;65000;ООО СМК "АРМС Территория";NULL
67002;66000;Смоленский филиал ОАО "Страховая компания "СОГАЗ-Мед";NULL
67003;66000;Филиал ЗАО "МАКС-М" в г.Смоленске;NULL
67004;66000;филиал ООО "РГС-Медицина"- "Росгосстрах-Смоленск-Медицина";NULL
67005;66000;ЗАО "Страховая группа "Спасские ворота-М";NULL
68002;68000;ЗАО МСК "СОЛИДАРНОСТЬ ДЛЯ ЖИЗНИ";NULL
70007;69000;ООО "СК "МЕДИКА-ТОМСК";NULL
70010;69000;ФИЛИАЛ ЗАО "МАКС-М" В ГОРОДЕ ТОМСКЕ;NULL
70011;69000;ФИЛИАЛ "ТОМСКИЙ" ЗАО "СТРАХОВАЯ ГРУППА "СПАССКИЕ ВОРОТА-М";NULL
70012;69000;ТОМСКИЙ ФИЛИАЛ ОАО "СТРАХОВАЯ КОМПАНИЯ "СОГАЗ-МЕД";NULL
70015;69000;ТОМСКИЙ ФИЛИАЛ ОАО "РОСНО-МС";NULL
71001;70000;ТУЛЬСКИЙ ФИЛИАЛ ООО "АЛЬФАСТРАХОВАНИЕ-ОМС" (РАНЕЕ ООО "МКС ВИРМЕД");NULL
71002;70000;ФИЛИАЛ "КАПИТАЛ МС" В Г. ТУЛЕ;NULL
72001;71000;ТФ ОАО СМК "Югория-Мед";NULL
72002;71000;ТФ ОАО "Страховая компания "СОГАЗ-Мед";NULL
72003;71000;Филиал ЗАО "Капитал Медицинское страхование" в г.Тюмени;NULL
72004;71000;ОАО "МСК "САНА";NULL
81001;71100;ЮГОРСКИЙ ФИЛИАЛ ОАО "СТРАХОВАЯ КОМПАНИЯ "СОГАЗ-МЕД";NULL
81002;71100;ФИЛИАЛ ЗАО "КАПИТАЛ МЕДИЦИНСКОЕ СТРАХОВАНИЕ" В Г. КОГАЛЫМЕ;NULL
81003;71100;ОАО СМК "ЮГОРИЯ-МЕД";NULL
83001;71140;ОАО "ГМСК "Заполярье";NULL
83003;71140;Новоуренгойское отделение Ямальского филиала ОАО "Страховая компания "СОГАЗ-Мед";NULL
83004;71140;Надымское отделение Ямальского филиала ОАО "Страховая компания "СОГАЗ-Мед";NULL
83005;71140;ОАО "МСК "Новый Уренгой";NULL
83006;71140;Муравленковский филиал ОАО "ГМСК "Заполярье";NULL
83007;71140;Муравленковское отделение Ямальского филиала ОАО "Страховая компания "СОГАЗ-Мед";NULL
83008;71140;Ямальский филиал ОАО "Страховая компания "СОГАЗ-Мед";NULL
83009;71140;Ноябрьский филиал ОАО "ГМСК "Заполярье";NULL
83010;71140;Пуровское отделение Ямальского филиала ОАО "Страховая компания "СОГАЗ-Мед";NULL
83011;71140;Губкинский филиал ОАО "ГМСК "Заполярье";NULL
83012;71140;Губкинское отделение Ямальского филиала ОАО "Страховая компания "СОГАЗ-Мед";NULL
83013;71140;Надымский филиал ОАО "ГМСК "Заполярье";NULL
73058;73000;ФИЛИАЛ ЗАО МСК "СОЛИДАРНОСТЬ ДЛЯ ЖИЗНИ" В УЛЬЯНОВСКОЙ ОБЛАСТИ;NULL
73060;73000;ФИЛИАЛ ООО "РГС-МЕДИЦИНА"-"РОСГОССТРАХ-УЛЬЯНОВСК-МЕДИЦИНА";NULL
74003;75000;АСТРА-МЕТАЛЛ;NULL
74030;75000;РЕСО-МЕД;NULL
74036;75000;"ИНГОССТРАХ-М" (ЧЕЛЯБ.ФИЛИАЛ);NULL
74039;75000;ЕКАТЕРИНБУРГСКИЙ ФИЛИАЛ "СОГАЗ-МЕД";NULL
74052;75000;"ЮЖУРАЛ-АСКО"(ФИЛИАЛ "АСК-МЕД") "ЮЖУРАЛ-АСКО";NULL
74053;75000;АЛЬФАСТРАХОВАНИЕ-МС;NULL
74057;75000;АЛЬФАСТРАХОВАНИЕ-ОМС ЧЕЛЯБИНСКИЙ ФИЛИАЛ;NULL
74058;75000;СМК АСТРАМЕД-МС (ОАО);NULL
74059;75000;ОАО "Страховая компания "АСКОМЕД";NULL
75001;76000;ГК "ЗАБАЙКАЛМЕДСТРАХ";NULL
75003;76000;ЗАО "СТРАХОВАЯ ГРУППА "СПАССКИЕ ВОРОТА-М" ФИЛИАЛ "ЧИТИНСКИЙ";NULL
75004;76000;ОАО "Страховая компания "СОГАЗ-Мед";NULL
75005;76000;Читинский филиал ОАО "РОСНО-МС";NULL
82001;77000;Чукотский филиал ОАО Страховая компания "СОГАЗ-Мед";NULL
76001;78000;ЯРОСЛАВСКИЙ ФИЛИАЛ ООО "СМК РЕСО-МЕД";NULL
76003;78000;ЯРОСЛАВСКИЙ ФИЛИАЛ ОАО "СТРАХОВАЯ КОМПАНИЯ "СОГАЗ-МЕД";NULL
76004;78000;ФИЛИАЛ ООО "РГС-МЕДИЦИНА" - "РОСГОССТРАХ-ЯРОСЛАВЛЬ-МЕДИЦИНА";NULL
76005;78000;ЯРОСЛАВСКИЙ ФИЛИАЛ ООО СК "КАПИТАЛ-ПОЛИС МЕД";NULL
76006;78000;ФИЛИАЛ ООО "СК "ИНГОССТРАХ-М" В Г. ЯРОСЛАВЛЬ;NULL
01001;79000;ФИЛИАЛ ЗАО МЕДИЦИНСКАЯ СТРАХОВАЯ КОМПАНИЯ "СОЛИДАРНОСТЬ ДЛЯ ЖИЗНИ" В РЕСПУБЛИКЕ АДЫГЕЯ;NULL
02001;80000;ФИЛИАЛ ЗАО "МАКС-М" В Г. УФЕ;NULL
02002;80000;УФИМСКИЙ ФИЛИАЛ ОАО "МСК "УРАЛСИБ";NULL
02003;80000;ФИЛИАЛ ООО СМК "АСТРА-МЕТАЛЛ" В РБ;NULL
02004;80000;ФИЛИАЛ ООО "РГС-МЕДИЦИНА" - "РОСГОССТРАХ-БАШКОРТОСТАН-МЕДИЦИНА";NULL
02005;80000;УФИМСКИЙ ФИЛИАЛ ОАО СМК "ЮГОРИЯ-МЕД";NULL
02008;80000;УФИМСКИЙ ФИЛИАЛ ОАО "СТРАХОВАЯ КОМПАНИЯ "СОГАЗ-МЕД";NULL
02010;80000;БАШКИРСКИЙ ФИЛИАЛ "СПАСЕНИЕ-БМСК";NULL
03101;81000;ОАО "Страховая компания "СОГАЗ-Мед";NULL
03102;81000;ООО "РГС-Медицина";NULL
03103;81000;ОАО "РОСНО-МС";NULL
05501;82000;ФИЛИАЛ ЗАО "МАКС-М" В Г.МАХАЧКАЛА;NULL
05701;82000;ЗАО МСК "СОЛИДАРНОСТЬ ДЛЯ ЖИЗНИ";NULL
07001;83000;ФИЛИАЛ ЗАО "КАПИТАЛ МЕДИЦИНСКОЕ СТРАХОВАНИЕ" В Г. НАЛЬЧИКЕ;NULL
09001;91000;ООО "СК "ИНГОССТРАХ-М";NULL
04001;84000;Филиал ЗАО "Капитал Медицинское страхование" в г. Горно-Алтайске;NULL
04002;84000;Филиал ЗАО "СГ "Спасские ворота-М" в Республике Алтай;NULL
08001;85000;ЗАО МСК "СОЛИДАРНОСТЬ ДЛЯ ЖИЗНИ";NULL
08002;85000;ОАО "РОСНО-МС";NULL
10001;86000;ФИЛИАЛ ООО "СТРАХОВАЯ КОМПАНИЯ "ИНГОССТРАХ-М" В Г.ПЕТРОЗАВОДСК;NULL
10003;86000;КАРЕЛЬСКИЙ ФИЛИАЛ ООО "СМК РЕСО-МЕД";NULL
11001;87000;СЫКТЫВКАРСКИЙ ФИЛИАЛ ОАО "СТРАХОВАЯ КОМПАНИЯ "СОГАЗ-МЕД";NULL
11002;87000;ФИЛИАЛ ООО "РГС-МЕДИЦИНА"-"РОСГОССТРАХ-СЫКТЫВКАР-МЕДИЦИНА";NULL
12001;88000;МАРИЙСКИЙ ФИЛИАЛ ОАО "СТРАХОВАЯ КОМПАНИЯ "СОГАЗ-МЕД";NULL
12002;88000;ФИЛИАЛ "МАРИЙ ЭЛ-РОСНО-МС" ОАО СТРАХОВАЯ КОМПАНИЯ "РОСНО-МС";NULL
13006;89000;ОАО "СК"СОГАЗ-МЕД";NULL
13009;89000;ООО "РГС-МОРДОВИЯ-МЕДИЦИНА";NULL
15001;90000;ФИЛИАЛ ЗАО МСК "СОЛИДАРНОСТЬ ДЛЯ ЖИЗНИ " В РСО-АЛАНИЯ;NULL
15002;90000;РГС-СЕВЕРНАЯ ОСЕТИЯ-МЕДИЦИНА;NULL
09050;91000;ЗАО МСК "МАКС-М" ФИЛИАЛ В Г. ЧЕРКЕССКЕ;NULL
16051;92000;ООО "СК "АК БАРС-МЕД";NULL
16052;92000;ЗАО "СМО "СПАСЕНИЕ";NULL
16053;92000;ООО СМО "ЧУЛПАН-МЕД";NULL
17001;93000;ЗАО "КАПИТАЛ МЕДИЦИНСКОЕ СТРАХОВАНИЕ" В Г. КЫЗЫЛЕ;NULL
18001;94000;ИЖЕВСКИЙ ФИЛИАЛ ООО "СТРАХОВАЯ КОМПАНИЯ "ВСК-МИЛОСЕРДИЕ";NULL
18002;94000;ФИЛИАЛ ООО "СТРАХОВАЯ КОМПАНИЯ "ИНГОССТРАХ-М" В Г.ИЖЕВСКЕ;NULL
18003;94000;ФИЛИАЛ "УДМУРТСКИЙ" ЗАО СГ "СПАССКИЕ ВОРОТА-М";NULL
18004;94000;ЗАО "СМК АСК-Мед" ФИЛИАЛ "МРСК-Мед";NULL
18005;94000;ФИЛИАЛ ООО "РОСГОССТРАХ - МЕДИЦИНА" - "РОСГОССТРАХ-УДМУРТИЯ-МЕДИЦИНА";NULL
18006;94000;УДМУРТСКИЙ ФИЛИАЛ ОАО" СТРАХОВАЯ КОМПАНИЯ "СОГАЗ - МЕД";NULL
18007;94000;ПРЕДСТАВИТЕЛЬСТВО ЗАО "СМО "СПАСЕНИЕ" В Г. ИЖЕВСКЕ;NULL
19001;95000;ФИЛИАЛ ООО "СК "ИНГОССТРАХ-М" В Г.САЯНОГОРСК;NULL
19002;95000;ХФ ЗАО МСО "НАДЕЖДА";NULL
19004;95000;ЗАО СМК "СИБИРСКИЙ СПАС-МЕД";NULL
20001;96000;ФИЛИАЛ ЗАО "МАКС-М" В Г.ГРОЗНОМ;NULL
21001;97000;ОАО "ЧУВАШСКАЯ МСК";NULL
21002;97000;ОАО "СК "ЧУВАШИЯ-МЕД";NULL
21003;97000;ОАО "СТРАХОВАЯ КОМПАНИЯ "СОГАЗ-МЕД";NULL
21004;97000;ОАО "РОСНО-МС";NULL
14002;98000;ОАО ГСМК "САХАМЕДСТРАХ";NULL
14004;98000;ФИЛИАЛ ЗАО "КАПИТАЛ МЕДИЦИНСКОЕ СТРАХОВАНИЕ" В Г. ЯКУТСКЕ;NULL
14005;98000;ООО "РГС-МЕДИЦИНА"-"РОСГОССТРАХ-САХА-(ЯКУТИЯ)-МЕДИЦИНА");NULL
79002;99000;ЗАО "Страховая группа"Спасские ворота-М";NULL
79003;99000;ООО "РГС-Медицина";NULL
79004;99000;ООО "СК "ДАЛЬ-РОСМЕД";NULL
